%TF.GenerationSoftware,KiCad,Pcbnew,5.1.8*%
%TF.CreationDate,2020-11-28T09:26:41-05:00*%
%TF.ProjectId,Dual_VR_Conditioner,4475616c-5f56-4525-9f43-6f6e64697469,rev?*%
%TF.SameCoordinates,Original*%
%TF.FileFunction,Copper,L1,Top*%
%TF.FilePolarity,Positive*%
%FSLAX46Y46*%
G04 Gerber Fmt 4.6, Leading zero omitted, Abs format (unit mm)*
G04 Created by KiCad (PCBNEW 5.1.8) date 2020-11-28 09:26:41*
%MOMM*%
%LPD*%
G01*
G04 APERTURE LIST*
%TA.AperFunction,ComponentPad*%
%ADD10O,1.600000X1.600000*%
%TD*%
%TA.AperFunction,ComponentPad*%
%ADD11R,1.600000X1.600000*%
%TD*%
%TA.AperFunction,SMDPad,CuDef*%
%ADD12R,1.500000X1.000000*%
%TD*%
%TA.AperFunction,ViaPad*%
%ADD13C,0.800000*%
%TD*%
%TA.AperFunction,Conductor*%
%ADD14C,0.500000*%
%TD*%
%TA.AperFunction,Conductor*%
%ADD15C,0.254000*%
%TD*%
%TA.AperFunction,Conductor*%
%ADD16C,0.100000*%
%TD*%
G04 APERTURE END LIST*
%TO.P,R1,2*%
%TO.N,Net-(C1-Pad1)*%
%TA.AperFunction,SMDPad,CuDef*%
G36*
G01*
X134762500Y-79037500D02*
X135237500Y-79037500D01*
G75*
G02*
X135475000Y-79275000I0J-237500D01*
G01*
X135475000Y-79775000D01*
G75*
G02*
X135237500Y-80012500I-237500J0D01*
G01*
X134762500Y-80012500D01*
G75*
G02*
X134525000Y-79775000I0J237500D01*
G01*
X134525000Y-79275000D01*
G75*
G02*
X134762500Y-79037500I237500J0D01*
G01*
G37*
%TD.AperFunction*%
%TO.P,R1,1*%
%TO.N,/GND*%
%TA.AperFunction,SMDPad,CuDef*%
G36*
G01*
X134762500Y-77212500D02*
X135237500Y-77212500D01*
G75*
G02*
X135475000Y-77450000I0J-237500D01*
G01*
X135475000Y-77950000D01*
G75*
G02*
X135237500Y-78187500I-237500J0D01*
G01*
X134762500Y-78187500D01*
G75*
G02*
X134525000Y-77950000I0J237500D01*
G01*
X134525000Y-77450000D01*
G75*
G02*
X134762500Y-77212500I237500J0D01*
G01*
G37*
%TD.AperFunction*%
%TD*%
%TO.P,C1,2*%
%TO.N,/GND*%
%TA.AperFunction,SMDPad,CuDef*%
G36*
G01*
X137737500Y-78312500D02*
X137262500Y-78312500D01*
G75*
G02*
X137025000Y-78075000I0J237500D01*
G01*
X137025000Y-77475000D01*
G75*
G02*
X137262500Y-77237500I237500J0D01*
G01*
X137737500Y-77237500D01*
G75*
G02*
X137975000Y-77475000I0J-237500D01*
G01*
X137975000Y-78075000D01*
G75*
G02*
X137737500Y-78312500I-237500J0D01*
G01*
G37*
%TD.AperFunction*%
%TO.P,C1,1*%
%TO.N,Net-(C1-Pad1)*%
%TA.AperFunction,SMDPad,CuDef*%
G36*
G01*
X137737500Y-80037500D02*
X137262500Y-80037500D01*
G75*
G02*
X137025000Y-79800000I0J237500D01*
G01*
X137025000Y-79200000D01*
G75*
G02*
X137262500Y-78962500I237500J0D01*
G01*
X137737500Y-78962500D01*
G75*
G02*
X137975000Y-79200000I0J-237500D01*
G01*
X137975000Y-79800000D01*
G75*
G02*
X137737500Y-80037500I-237500J0D01*
G01*
G37*
%TD.AperFunction*%
%TD*%
%TO.P,R5,2*%
%TO.N,Net-(J1-Pad12)*%
%TA.AperFunction,SMDPad,CuDef*%
G36*
G01*
X148262500Y-79637500D02*
X148737500Y-79637500D01*
G75*
G02*
X148975000Y-79875000I0J-237500D01*
G01*
X148975000Y-80375000D01*
G75*
G02*
X148737500Y-80612500I-237500J0D01*
G01*
X148262500Y-80612500D01*
G75*
G02*
X148025000Y-80375000I0J237500D01*
G01*
X148025000Y-79875000D01*
G75*
G02*
X148262500Y-79637500I237500J0D01*
G01*
G37*
%TD.AperFunction*%
%TO.P,R5,1*%
%TO.N,/5V*%
%TA.AperFunction,SMDPad,CuDef*%
G36*
G01*
X148262500Y-77812500D02*
X148737500Y-77812500D01*
G75*
G02*
X148975000Y-78050000I0J-237500D01*
G01*
X148975000Y-78550000D01*
G75*
G02*
X148737500Y-78787500I-237500J0D01*
G01*
X148262500Y-78787500D01*
G75*
G02*
X148025000Y-78550000I0J237500D01*
G01*
X148025000Y-78050000D01*
G75*
G02*
X148262500Y-77812500I237500J0D01*
G01*
G37*
%TD.AperFunction*%
%TD*%
%TO.P,R4,2*%
%TO.N,Net-(C5-Pad1)*%
%TA.AperFunction,SMDPad,CuDef*%
G36*
G01*
X148737500Y-73412500D02*
X148262500Y-73412500D01*
G75*
G02*
X148025000Y-73175000I0J237500D01*
G01*
X148025000Y-72675000D01*
G75*
G02*
X148262500Y-72437500I237500J0D01*
G01*
X148737500Y-72437500D01*
G75*
G02*
X148975000Y-72675000I0J-237500D01*
G01*
X148975000Y-73175000D01*
G75*
G02*
X148737500Y-73412500I-237500J0D01*
G01*
G37*
%TD.AperFunction*%
%TO.P,R4,1*%
%TO.N,/5V*%
%TA.AperFunction,SMDPad,CuDef*%
G36*
G01*
X148737500Y-75237500D02*
X148262500Y-75237500D01*
G75*
G02*
X148025000Y-75000000I0J237500D01*
G01*
X148025000Y-74500000D01*
G75*
G02*
X148262500Y-74262500I237500J0D01*
G01*
X148737500Y-74262500D01*
G75*
G02*
X148975000Y-74500000I0J-237500D01*
G01*
X148975000Y-75000000D01*
G75*
G02*
X148737500Y-75237500I-237500J0D01*
G01*
G37*
%TD.AperFunction*%
%TD*%
%TO.P,R3,2*%
%TO.N,Net-(C3-Pad1)*%
%TA.AperFunction,SMDPad,CuDef*%
G36*
G01*
X137262500Y-74262500D02*
X137737500Y-74262500D01*
G75*
G02*
X137975000Y-74500000I0J-237500D01*
G01*
X137975000Y-75000000D01*
G75*
G02*
X137737500Y-75237500I-237500J0D01*
G01*
X137262500Y-75237500D01*
G75*
G02*
X137025000Y-75000000I0J237500D01*
G01*
X137025000Y-74500000D01*
G75*
G02*
X137262500Y-74262500I237500J0D01*
G01*
G37*
%TD.AperFunction*%
%TO.P,R3,1*%
%TO.N,Net-(C2-Pad1)*%
%TA.AperFunction,SMDPad,CuDef*%
G36*
G01*
X137262500Y-72437500D02*
X137737500Y-72437500D01*
G75*
G02*
X137975000Y-72675000I0J-237500D01*
G01*
X137975000Y-73175000D01*
G75*
G02*
X137737500Y-73412500I-237500J0D01*
G01*
X137262500Y-73412500D01*
G75*
G02*
X137025000Y-73175000I0J237500D01*
G01*
X137025000Y-72675000D01*
G75*
G02*
X137262500Y-72437500I237500J0D01*
G01*
G37*
%TD.AperFunction*%
%TD*%
%TO.P,R2,2*%
%TO.N,Net-(C2-Pad1)*%
%TA.AperFunction,SMDPad,CuDef*%
G36*
G01*
X135737500Y-90575000D02*
X135262500Y-90575000D01*
G75*
G02*
X135025000Y-90337500I0J237500D01*
G01*
X135025000Y-89837500D01*
G75*
G02*
X135262500Y-89600000I237500J0D01*
G01*
X135737500Y-89600000D01*
G75*
G02*
X135975000Y-89837500I0J-237500D01*
G01*
X135975000Y-90337500D01*
G75*
G02*
X135737500Y-90575000I-237500J0D01*
G01*
G37*
%TD.AperFunction*%
%TO.P,R2,1*%
%TO.N,/GND*%
%TA.AperFunction,SMDPad,CuDef*%
G36*
G01*
X135737500Y-92400000D02*
X135262500Y-92400000D01*
G75*
G02*
X135025000Y-92162500I0J237500D01*
G01*
X135025000Y-91662500D01*
G75*
G02*
X135262500Y-91425000I237500J0D01*
G01*
X135737500Y-91425000D01*
G75*
G02*
X135975000Y-91662500I0J-237500D01*
G01*
X135975000Y-92162500D01*
G75*
G02*
X135737500Y-92400000I-237500J0D01*
G01*
G37*
%TD.AperFunction*%
%TD*%
D10*
%TO.P,J3,8*%
%TO.N,Net-(J1-Pad12)*%
X148902000Y-83634000D03*
%TO.P,J3,4*%
%TO.N,/GND*%
X141282000Y-91254000D03*
%TO.P,J3,7*%
%TO.N,Net-(J3-Pad7)*%
X148902000Y-86174000D03*
%TO.P,J3,3*%
%TO.N,Net-(C7-Pad1)*%
X141282000Y-88714000D03*
%TO.P,J3,6*%
%TO.N,/GND*%
X148902000Y-88714000D03*
%TO.P,J3,2*%
%TO.N,Net-(C2-Pad1)*%
X141282000Y-86174000D03*
%TO.P,J3,5*%
%TO.N,/5V*%
X148902000Y-91254000D03*
D11*
%TO.P,J3,1*%
%TO.N,/GND*%
X141282000Y-83634000D03*
%TD*%
D12*
%TO.P,J2,1*%
%TO.N,/5V*%
X137000000Y-85300000D03*
%TO.P,J2,2*%
%TO.N,Net-(J1-Pad5)*%
X137000000Y-84000000D03*
%TO.P,J2,3*%
%TO.N,/GND*%
X137000000Y-82700000D03*
%TD*%
%TO.P,J1,14*%
%TO.N,Net-(C5-Pad1)*%
%TA.AperFunction,SMDPad,CuDef*%
G36*
G01*
X144534000Y-72116000D02*
X144534000Y-71816000D01*
G75*
G02*
X144684000Y-71666000I150000J0D01*
G01*
X146334000Y-71666000D01*
G75*
G02*
X146484000Y-71816000I0J-150000D01*
G01*
X146484000Y-72116000D01*
G75*
G02*
X146334000Y-72266000I-150000J0D01*
G01*
X144684000Y-72266000D01*
G75*
G02*
X144534000Y-72116000I0J150000D01*
G01*
G37*
%TD.AperFunction*%
%TO.P,J1,13*%
%TO.N,N/C*%
%TA.AperFunction,SMDPad,CuDef*%
G36*
G01*
X144534000Y-73386000D02*
X144534000Y-73086000D01*
G75*
G02*
X144684000Y-72936000I150000J0D01*
G01*
X146334000Y-72936000D01*
G75*
G02*
X146484000Y-73086000I0J-150000D01*
G01*
X146484000Y-73386000D01*
G75*
G02*
X146334000Y-73536000I-150000J0D01*
G01*
X144684000Y-73536000D01*
G75*
G02*
X144534000Y-73386000I0J150000D01*
G01*
G37*
%TD.AperFunction*%
%TO.P,J1,12*%
%TO.N,Net-(J1-Pad12)*%
%TA.AperFunction,SMDPad,CuDef*%
G36*
G01*
X144534000Y-74656000D02*
X144534000Y-74356000D01*
G75*
G02*
X144684000Y-74206000I150000J0D01*
G01*
X146334000Y-74206000D01*
G75*
G02*
X146484000Y-74356000I0J-150000D01*
G01*
X146484000Y-74656000D01*
G75*
G02*
X146334000Y-74806000I-150000J0D01*
G01*
X144684000Y-74806000D01*
G75*
G02*
X144534000Y-74656000I0J150000D01*
G01*
G37*
%TD.AperFunction*%
%TO.P,J1,11*%
%TO.N,/GND*%
%TA.AperFunction,SMDPad,CuDef*%
G36*
G01*
X144534000Y-75926000D02*
X144534000Y-75626000D01*
G75*
G02*
X144684000Y-75476000I150000J0D01*
G01*
X146334000Y-75476000D01*
G75*
G02*
X146484000Y-75626000I0J-150000D01*
G01*
X146484000Y-75926000D01*
G75*
G02*
X146334000Y-76076000I-150000J0D01*
G01*
X144684000Y-76076000D01*
G75*
G02*
X144534000Y-75926000I0J150000D01*
G01*
G37*
%TD.AperFunction*%
%TO.P,J1,10*%
%TO.N,N/C*%
%TA.AperFunction,SMDPad,CuDef*%
G36*
G01*
X144534000Y-77196000D02*
X144534000Y-76896000D01*
G75*
G02*
X144684000Y-76746000I150000J0D01*
G01*
X146334000Y-76746000D01*
G75*
G02*
X146484000Y-76896000I0J-150000D01*
G01*
X146484000Y-77196000D01*
G75*
G02*
X146334000Y-77346000I-150000J0D01*
G01*
X144684000Y-77346000D01*
G75*
G02*
X144534000Y-77196000I0J150000D01*
G01*
G37*
%TD.AperFunction*%
%TO.P,J1,9*%
%TO.N,/GND*%
%TA.AperFunction,SMDPad,CuDef*%
G36*
G01*
X144534000Y-78466000D02*
X144534000Y-78166000D01*
G75*
G02*
X144684000Y-78016000I150000J0D01*
G01*
X146334000Y-78016000D01*
G75*
G02*
X146484000Y-78166000I0J-150000D01*
G01*
X146484000Y-78466000D01*
G75*
G02*
X146334000Y-78616000I-150000J0D01*
G01*
X144684000Y-78616000D01*
G75*
G02*
X144534000Y-78466000I0J150000D01*
G01*
G37*
%TD.AperFunction*%
%TO.P,J1,8*%
%TO.N,/5V*%
%TA.AperFunction,SMDPad,CuDef*%
G36*
G01*
X144534000Y-79736000D02*
X144534000Y-79436000D01*
G75*
G02*
X144684000Y-79286000I150000J0D01*
G01*
X146334000Y-79286000D01*
G75*
G02*
X146484000Y-79436000I0J-150000D01*
G01*
X146484000Y-79736000D01*
G75*
G02*
X146334000Y-79886000I-150000J0D01*
G01*
X144684000Y-79886000D01*
G75*
G02*
X144534000Y-79736000I0J150000D01*
G01*
G37*
%TD.AperFunction*%
%TO.P,J1,7*%
%TO.N,Net-(C1-Pad1)*%
%TA.AperFunction,SMDPad,CuDef*%
G36*
G01*
X139584000Y-79736000D02*
X139584000Y-79436000D01*
G75*
G02*
X139734000Y-79286000I150000J0D01*
G01*
X141384000Y-79286000D01*
G75*
G02*
X141534000Y-79436000I0J-150000D01*
G01*
X141534000Y-79736000D01*
G75*
G02*
X141384000Y-79886000I-150000J0D01*
G01*
X139734000Y-79886000D01*
G75*
G02*
X139584000Y-79736000I0J150000D01*
G01*
G37*
%TD.AperFunction*%
%TO.P,J1,6*%
%TO.N,N/C*%
%TA.AperFunction,SMDPad,CuDef*%
G36*
G01*
X139584000Y-78466000D02*
X139584000Y-78166000D01*
G75*
G02*
X139734000Y-78016000I150000J0D01*
G01*
X141384000Y-78016000D01*
G75*
G02*
X141534000Y-78166000I0J-150000D01*
G01*
X141534000Y-78466000D01*
G75*
G02*
X141384000Y-78616000I-150000J0D01*
G01*
X139734000Y-78616000D01*
G75*
G02*
X139584000Y-78466000I0J150000D01*
G01*
G37*
%TD.AperFunction*%
%TO.P,J1,5*%
%TO.N,Net-(J1-Pad5)*%
%TA.AperFunction,SMDPad,CuDef*%
G36*
G01*
X139584000Y-77196000D02*
X139584000Y-76896000D01*
G75*
G02*
X139734000Y-76746000I150000J0D01*
G01*
X141384000Y-76746000D01*
G75*
G02*
X141534000Y-76896000I0J-150000D01*
G01*
X141534000Y-77196000D01*
G75*
G02*
X141384000Y-77346000I-150000J0D01*
G01*
X139734000Y-77346000D01*
G75*
G02*
X139584000Y-77196000I0J150000D01*
G01*
G37*
%TD.AperFunction*%
%TO.P,J1,4*%
%TO.N,N/C*%
%TA.AperFunction,SMDPad,CuDef*%
G36*
G01*
X139584000Y-75926000D02*
X139584000Y-75626000D01*
G75*
G02*
X139734000Y-75476000I150000J0D01*
G01*
X141384000Y-75476000D01*
G75*
G02*
X141534000Y-75626000I0J-150000D01*
G01*
X141534000Y-75926000D01*
G75*
G02*
X141384000Y-76076000I-150000J0D01*
G01*
X139734000Y-76076000D01*
G75*
G02*
X139584000Y-75926000I0J150000D01*
G01*
G37*
%TD.AperFunction*%
%TO.P,J1,3*%
%TO.N,Net-(C3-Pad1)*%
%TA.AperFunction,SMDPad,CuDef*%
G36*
G01*
X139584000Y-74656000D02*
X139584000Y-74356000D01*
G75*
G02*
X139734000Y-74206000I150000J0D01*
G01*
X141384000Y-74206000D01*
G75*
G02*
X141534000Y-74356000I0J-150000D01*
G01*
X141534000Y-74656000D01*
G75*
G02*
X141384000Y-74806000I-150000J0D01*
G01*
X139734000Y-74806000D01*
G75*
G02*
X139584000Y-74656000I0J150000D01*
G01*
G37*
%TD.AperFunction*%
%TO.P,J1,2*%
%TO.N,/GND*%
%TA.AperFunction,SMDPad,CuDef*%
G36*
G01*
X139584000Y-73386000D02*
X139584000Y-73086000D01*
G75*
G02*
X139734000Y-72936000I150000J0D01*
G01*
X141384000Y-72936000D01*
G75*
G02*
X141534000Y-73086000I0J-150000D01*
G01*
X141534000Y-73386000D01*
G75*
G02*
X141384000Y-73536000I-150000J0D01*
G01*
X139734000Y-73536000D01*
G75*
G02*
X139584000Y-73386000I0J150000D01*
G01*
G37*
%TD.AperFunction*%
%TO.P,J1,1*%
%TO.N,N/C*%
%TA.AperFunction,SMDPad,CuDef*%
G36*
G01*
X139584000Y-72116000D02*
X139584000Y-71816000D01*
G75*
G02*
X139734000Y-71666000I150000J0D01*
G01*
X141384000Y-71666000D01*
G75*
G02*
X141534000Y-71816000I0J-150000D01*
G01*
X141534000Y-72116000D01*
G75*
G02*
X141384000Y-72266000I-150000J0D01*
G01*
X139734000Y-72266000D01*
G75*
G02*
X139584000Y-72116000I0J150000D01*
G01*
G37*
%TD.AperFunction*%
%TD*%
%TO.P,C5,2*%
%TO.N,/GND*%
%TA.AperFunction,SMDPad,CuDef*%
G36*
G01*
X150762500Y-74187500D02*
X151237500Y-74187500D01*
G75*
G02*
X151475000Y-74425000I0J-237500D01*
G01*
X151475000Y-75025000D01*
G75*
G02*
X151237500Y-75262500I-237500J0D01*
G01*
X150762500Y-75262500D01*
G75*
G02*
X150525000Y-75025000I0J237500D01*
G01*
X150525000Y-74425000D01*
G75*
G02*
X150762500Y-74187500I237500J0D01*
G01*
G37*
%TD.AperFunction*%
%TO.P,C5,1*%
%TO.N,Net-(C5-Pad1)*%
%TA.AperFunction,SMDPad,CuDef*%
G36*
G01*
X150762500Y-72462500D02*
X151237500Y-72462500D01*
G75*
G02*
X151475000Y-72700000I0J-237500D01*
G01*
X151475000Y-73300000D01*
G75*
G02*
X151237500Y-73537500I-237500J0D01*
G01*
X150762500Y-73537500D01*
G75*
G02*
X150525000Y-73300000I0J237500D01*
G01*
X150525000Y-72700000D01*
G75*
G02*
X150762500Y-72462500I237500J0D01*
G01*
G37*
%TD.AperFunction*%
%TD*%
%TO.P,C4,2*%
%TO.N,/GND*%
%TA.AperFunction,SMDPad,CuDef*%
G36*
G01*
X150762500Y-79562500D02*
X151237500Y-79562500D01*
G75*
G02*
X151475000Y-79800000I0J-237500D01*
G01*
X151475000Y-80400000D01*
G75*
G02*
X151237500Y-80637500I-237500J0D01*
G01*
X150762500Y-80637500D01*
G75*
G02*
X150525000Y-80400000I0J237500D01*
G01*
X150525000Y-79800000D01*
G75*
G02*
X150762500Y-79562500I237500J0D01*
G01*
G37*
%TD.AperFunction*%
%TO.P,C4,1*%
%TO.N,/5V*%
%TA.AperFunction,SMDPad,CuDef*%
G36*
G01*
X150762500Y-77837500D02*
X151237500Y-77837500D01*
G75*
G02*
X151475000Y-78075000I0J-237500D01*
G01*
X151475000Y-78675000D01*
G75*
G02*
X151237500Y-78912500I-237500J0D01*
G01*
X150762500Y-78912500D01*
G75*
G02*
X150525000Y-78675000I0J237500D01*
G01*
X150525000Y-78075000D01*
G75*
G02*
X150762500Y-77837500I237500J0D01*
G01*
G37*
%TD.AperFunction*%
%TD*%
%TO.P,C3,2*%
%TO.N,/GND*%
%TA.AperFunction,SMDPad,CuDef*%
G36*
G01*
X135237500Y-73562500D02*
X134762500Y-73562500D01*
G75*
G02*
X134525000Y-73325000I0J237500D01*
G01*
X134525000Y-72725000D01*
G75*
G02*
X134762500Y-72487500I237500J0D01*
G01*
X135237500Y-72487500D01*
G75*
G02*
X135475000Y-72725000I0J-237500D01*
G01*
X135475000Y-73325000D01*
G75*
G02*
X135237500Y-73562500I-237500J0D01*
G01*
G37*
%TD.AperFunction*%
%TO.P,C3,1*%
%TO.N,Net-(C3-Pad1)*%
%TA.AperFunction,SMDPad,CuDef*%
G36*
G01*
X135237500Y-75287500D02*
X134762500Y-75287500D01*
G75*
G02*
X134525000Y-75050000I0J237500D01*
G01*
X134525000Y-74450000D01*
G75*
G02*
X134762500Y-74212500I237500J0D01*
G01*
X135237500Y-74212500D01*
G75*
G02*
X135475000Y-74450000I0J-237500D01*
G01*
X135475000Y-75050000D01*
G75*
G02*
X135237500Y-75287500I-237500J0D01*
G01*
G37*
%TD.AperFunction*%
%TD*%
%TO.P,C2,2*%
%TO.N,/GND*%
%TA.AperFunction,SMDPad,CuDef*%
G36*
G01*
X137762500Y-91325000D02*
X138237500Y-91325000D01*
G75*
G02*
X138475000Y-91562500I0J-237500D01*
G01*
X138475000Y-92162500D01*
G75*
G02*
X138237500Y-92400000I-237500J0D01*
G01*
X137762500Y-92400000D01*
G75*
G02*
X137525000Y-92162500I0J237500D01*
G01*
X137525000Y-91562500D01*
G75*
G02*
X137762500Y-91325000I237500J0D01*
G01*
G37*
%TD.AperFunction*%
%TO.P,C2,1*%
%TO.N,Net-(C2-Pad1)*%
%TA.AperFunction,SMDPad,CuDef*%
G36*
G01*
X137762500Y-89600000D02*
X138237500Y-89600000D01*
G75*
G02*
X138475000Y-89837500I0J-237500D01*
G01*
X138475000Y-90437500D01*
G75*
G02*
X138237500Y-90675000I-237500J0D01*
G01*
X137762500Y-90675000D01*
G75*
G02*
X137525000Y-90437500I0J237500D01*
G01*
X137525000Y-89837500D01*
G75*
G02*
X137762500Y-89600000I237500J0D01*
G01*
G37*
%TD.AperFunction*%
%TD*%
D13*
%TO.N,/GND*%
X142500000Y-72750000D03*
X137800000Y-81200000D03*
X137500000Y-87000000D03*
%TO.N,/5V*%
X149750000Y-76750000D03*
X139100000Y-84700000D03*
%TD*%
D14*
%TO.N,Net-(C1-Pad1)*%
X137475000Y-79525000D02*
X137500000Y-79500000D01*
X135000000Y-79525000D02*
X137475000Y-79525000D01*
X140473000Y-79500000D02*
X140559000Y-79586000D01*
X137500000Y-79500000D02*
X140473000Y-79500000D01*
%TO.N,Net-(C2-Pad1)*%
X137950000Y-90087500D02*
X138000000Y-90137500D01*
X135500000Y-90087500D02*
X137950000Y-90087500D01*
X138000000Y-88400000D02*
X138000000Y-90137500D01*
X140226000Y-86174000D02*
X138000000Y-88400000D01*
X141282000Y-86174000D02*
X140226000Y-86174000D01*
X142900000Y-85850000D02*
X142576000Y-86174000D01*
X142576000Y-86174000D02*
X141282000Y-86174000D01*
X142900000Y-74850000D02*
X142900000Y-85850000D01*
X143750000Y-74000000D02*
X142900000Y-74850000D01*
X143750000Y-71500000D02*
X143750000Y-74000000D01*
X142750000Y-70500000D02*
X143750000Y-71500000D01*
X137875000Y-70500000D02*
X142750000Y-70500000D01*
X137500000Y-70875000D02*
X137875000Y-70500000D01*
X137500000Y-72925000D02*
X137500000Y-70875000D01*
%TO.N,Net-(C3-Pad1)*%
X135000000Y-74750000D02*
X137500000Y-74750000D01*
X140315000Y-74750000D02*
X140559000Y-74506000D01*
X137500000Y-74750000D02*
X140315000Y-74750000D01*
%TO.N,/5V*%
X138500000Y-85300000D02*
X139100000Y-84700000D01*
X137000000Y-85300000D02*
X138500000Y-85300000D01*
X149750000Y-81000000D02*
X149750000Y-79550000D01*
X151000000Y-82250000D02*
X149750000Y-81000000D01*
X151000000Y-90500000D02*
X151000000Y-82250000D01*
X150246000Y-91254000D02*
X151000000Y-90500000D01*
X148902000Y-91254000D02*
X150246000Y-91254000D01*
X150375000Y-78375000D02*
X151000000Y-78375000D01*
X149750000Y-79000000D02*
X150375000Y-78375000D01*
X149750000Y-79550000D02*
X149750000Y-79000000D01*
X149050000Y-78300000D02*
X148500000Y-78300000D01*
X149750000Y-79000000D02*
X149050000Y-78300000D01*
X146800000Y-80877000D02*
X145509000Y-79586000D01*
X146800000Y-90050000D02*
X146800000Y-80877000D01*
X148004000Y-91254000D02*
X146800000Y-90050000D01*
X148902000Y-91254000D02*
X148004000Y-91254000D01*
X148500000Y-78000000D02*
X149750000Y-76750000D01*
X148500000Y-78300000D02*
X148500000Y-78000000D01*
X149750000Y-76000000D02*
X148500000Y-74750000D01*
X149750000Y-76750000D02*
X149750000Y-76000000D01*
%TO.N,Net-(C5-Pad1)*%
X147541000Y-71966000D02*
X148500000Y-72925000D01*
X145509000Y-71966000D02*
X147541000Y-71966000D01*
X148575000Y-73000000D02*
X148500000Y-72925000D01*
X151000000Y-73000000D02*
X148575000Y-73000000D01*
%TO.N,Net-(J1-Pad12)*%
X148902000Y-80527000D02*
X148500000Y-80125000D01*
X148902000Y-83634000D02*
X148902000Y-80527000D01*
X148500000Y-80125000D02*
X147875000Y-80125000D01*
X147875000Y-80125000D02*
X147250000Y-79500000D01*
X146484000Y-74506000D02*
X145509000Y-74506000D01*
X147250000Y-75272000D02*
X146484000Y-74506000D01*
X147250000Y-79500000D02*
X147250000Y-75272000D01*
%TO.N,Net-(J1-Pad5)*%
X142200000Y-80100000D02*
X142200000Y-77712000D01*
X140050000Y-80750000D02*
X141550000Y-80750000D01*
X141534000Y-77046000D02*
X140559000Y-77046000D01*
X139000000Y-81800000D02*
X140050000Y-80750000D01*
X141550000Y-80750000D02*
X142200000Y-80100000D01*
X139000000Y-82760002D02*
X139000000Y-81800000D01*
X137760002Y-84000000D02*
X139000000Y-82760002D01*
X142200000Y-77712000D02*
X141534000Y-77046000D01*
X137000000Y-84000000D02*
X137760002Y-84000000D01*
%TD*%
D15*
%TO.N,/GND*%
X137534687Y-69678411D02*
X137380941Y-69760589D01*
X137246183Y-69871183D01*
X137218466Y-69904956D01*
X136904952Y-70218470D01*
X136871184Y-70246183D01*
X136843471Y-70279951D01*
X136843468Y-70279954D01*
X136760590Y-70380941D01*
X136678412Y-70534687D01*
X136627805Y-70701510D01*
X136610719Y-70875000D01*
X136615001Y-70918479D01*
X136615000Y-72090454D01*
X136534488Y-72188558D01*
X136453577Y-72339933D01*
X136403752Y-72504184D01*
X136386928Y-72675000D01*
X136386928Y-73175000D01*
X136403752Y-73345816D01*
X136453577Y-73510067D01*
X136534488Y-73661442D01*
X136643377Y-73794123D01*
X136696232Y-73837500D01*
X136662723Y-73865000D01*
X136033329Y-73865000D01*
X136064502Y-73806680D01*
X136100812Y-73686982D01*
X136113072Y-73562500D01*
X136110000Y-73310750D01*
X135951250Y-73152000D01*
X135127000Y-73152000D01*
X135127000Y-73172000D01*
X134873000Y-73172000D01*
X134873000Y-73152000D01*
X134048750Y-73152000D01*
X133890000Y-73310750D01*
X133886928Y-73562500D01*
X133899188Y-73686982D01*
X133935498Y-73806680D01*
X133994463Y-73916994D01*
X134033774Y-73964894D01*
X133953577Y-74114933D01*
X133903752Y-74279184D01*
X133886928Y-74450000D01*
X133886928Y-75050000D01*
X133903752Y-75220816D01*
X133953577Y-75385067D01*
X134034488Y-75536442D01*
X134143377Y-75669123D01*
X134276058Y-75778012D01*
X134427433Y-75858923D01*
X134591684Y-75908748D01*
X134762500Y-75925572D01*
X135237500Y-75925572D01*
X135408316Y-75908748D01*
X135572567Y-75858923D01*
X135723942Y-75778012D01*
X135856623Y-75669123D01*
X135884627Y-75635000D01*
X136662723Y-75635000D01*
X136776058Y-75728012D01*
X136927433Y-75808923D01*
X137091684Y-75858748D01*
X137262500Y-75875572D01*
X137737500Y-75875572D01*
X137908316Y-75858748D01*
X138072567Y-75808923D01*
X138223942Y-75728012D01*
X138337277Y-75635000D01*
X138945928Y-75635000D01*
X138945928Y-75926000D01*
X138961071Y-76079745D01*
X139005916Y-76227582D01*
X139078742Y-76363829D01*
X139117454Y-76411000D01*
X139078742Y-76458171D01*
X139005916Y-76594418D01*
X138961071Y-76742255D01*
X138945928Y-76896000D01*
X138945928Y-77196000D01*
X138961071Y-77349745D01*
X139005916Y-77497582D01*
X139078742Y-77633829D01*
X139117454Y-77681000D01*
X139078742Y-77728171D01*
X139005916Y-77864418D01*
X138961071Y-78012255D01*
X138945928Y-78166000D01*
X138945928Y-78466000D01*
X138960604Y-78615000D01*
X138533329Y-78615000D01*
X138564502Y-78556680D01*
X138600812Y-78436982D01*
X138613072Y-78312500D01*
X138610000Y-78060750D01*
X138451250Y-77902000D01*
X137627000Y-77902000D01*
X137627000Y-77922000D01*
X137373000Y-77922000D01*
X137373000Y-77902000D01*
X136548750Y-77902000D01*
X136390000Y-78060750D01*
X136386928Y-78312500D01*
X136399188Y-78436982D01*
X136435498Y-78556680D01*
X136480034Y-78640000D01*
X135924583Y-78640000D01*
X135926185Y-78638685D01*
X136005537Y-78541994D01*
X136064502Y-78431680D01*
X136100812Y-78311982D01*
X136113072Y-78187500D01*
X136110000Y-77985750D01*
X135951250Y-77827000D01*
X135127000Y-77827000D01*
X135127000Y-77847000D01*
X134873000Y-77847000D01*
X134873000Y-77827000D01*
X134048750Y-77827000D01*
X133890000Y-77985750D01*
X133886928Y-78187500D01*
X133899188Y-78311982D01*
X133935498Y-78431680D01*
X133994463Y-78541994D01*
X134073815Y-78638685D01*
X134123812Y-78679717D01*
X134034488Y-78788558D01*
X133953577Y-78939933D01*
X133903752Y-79104184D01*
X133886928Y-79275000D01*
X133886928Y-79775000D01*
X133903752Y-79945816D01*
X133953577Y-80110067D01*
X134034488Y-80261442D01*
X134143377Y-80394123D01*
X134276058Y-80503012D01*
X134427433Y-80583923D01*
X134591684Y-80633748D01*
X134762500Y-80650572D01*
X135237500Y-80650572D01*
X135408316Y-80633748D01*
X135572567Y-80583923D01*
X135723942Y-80503012D01*
X135837277Y-80410000D01*
X136635890Y-80410000D01*
X136643377Y-80419123D01*
X136776058Y-80528012D01*
X136927433Y-80608923D01*
X137091684Y-80658748D01*
X137262500Y-80675572D01*
X137737500Y-80675572D01*
X137908316Y-80658748D01*
X138072567Y-80608923D01*
X138223942Y-80528012D01*
X138356623Y-80419123D01*
X138384627Y-80385000D01*
X139163421Y-80385000D01*
X138404951Y-81143471D01*
X138371184Y-81171183D01*
X138343471Y-81204951D01*
X138343468Y-81204954D01*
X138260590Y-81305941D01*
X138178412Y-81459687D01*
X138127805Y-81626510D01*
X138122148Y-81683951D01*
X138104494Y-81669463D01*
X137994180Y-81610498D01*
X137874482Y-81574188D01*
X137750000Y-81561928D01*
X137285750Y-81565000D01*
X137127000Y-81723750D01*
X137127000Y-82573000D01*
X137147000Y-82573000D01*
X137147000Y-82827000D01*
X137127000Y-82827000D01*
X137127000Y-82847000D01*
X136873000Y-82847000D01*
X136873000Y-82827000D01*
X135773750Y-82827000D01*
X135615000Y-82985750D01*
X135611928Y-83200000D01*
X135624188Y-83324482D01*
X135631929Y-83350000D01*
X135624188Y-83375518D01*
X135611928Y-83500000D01*
X135611928Y-84500000D01*
X135624188Y-84624482D01*
X135631929Y-84650000D01*
X135624188Y-84675518D01*
X135611928Y-84800000D01*
X135611928Y-85800000D01*
X135624188Y-85924482D01*
X135660498Y-86044180D01*
X135719463Y-86154494D01*
X135798815Y-86251185D01*
X135895506Y-86330537D01*
X136005820Y-86389502D01*
X136125518Y-86425812D01*
X136250000Y-86438072D01*
X137750000Y-86438072D01*
X137874482Y-86425812D01*
X137994180Y-86389502D01*
X138104494Y-86330537D01*
X138201185Y-86251185D01*
X138255501Y-86185000D01*
X138456531Y-86185000D01*
X138500000Y-86189281D01*
X138543469Y-86185000D01*
X138543477Y-86185000D01*
X138673490Y-86172195D01*
X138840313Y-86121589D01*
X138994059Y-86039411D01*
X139128817Y-85928817D01*
X139156534Y-85895044D01*
X139345043Y-85706535D01*
X139401898Y-85695226D01*
X139489468Y-85658953D01*
X137404956Y-87743466D01*
X137371183Y-87771183D01*
X137260589Y-87905942D01*
X137178411Y-88059688D01*
X137127805Y-88226511D01*
X137115000Y-88356524D01*
X137115000Y-88356531D01*
X137110719Y-88400000D01*
X137115000Y-88443469D01*
X137115000Y-89202500D01*
X136337277Y-89202500D01*
X136223942Y-89109488D01*
X136072567Y-89028577D01*
X135908316Y-88978752D01*
X135737500Y-88961928D01*
X135262500Y-88961928D01*
X135091684Y-88978752D01*
X134927433Y-89028577D01*
X134776058Y-89109488D01*
X134643377Y-89218377D01*
X134534488Y-89351058D01*
X134453577Y-89502433D01*
X134403752Y-89666684D01*
X134386928Y-89837500D01*
X134386928Y-90337500D01*
X134403752Y-90508316D01*
X134453577Y-90672567D01*
X134534488Y-90823942D01*
X134623812Y-90932783D01*
X134573815Y-90973815D01*
X134494463Y-91070506D01*
X134435498Y-91180820D01*
X134399188Y-91300518D01*
X134386928Y-91425000D01*
X134390000Y-91626750D01*
X134548750Y-91785500D01*
X135373000Y-91785500D01*
X135373000Y-91765500D01*
X135627000Y-91765500D01*
X135627000Y-91785500D01*
X136451250Y-91785500D01*
X136610000Y-91626750D01*
X136613072Y-91425000D01*
X136600812Y-91300518D01*
X136564502Y-91180820D01*
X136505537Y-91070506D01*
X136426185Y-90973815D01*
X136424583Y-90972500D01*
X136993397Y-90972500D01*
X136935498Y-91080820D01*
X136899188Y-91200518D01*
X136886928Y-91325000D01*
X136890000Y-91576750D01*
X137048750Y-91735500D01*
X137873000Y-91735500D01*
X137873000Y-91715500D01*
X138127000Y-91715500D01*
X138127000Y-91735500D01*
X138951250Y-91735500D01*
X139083711Y-91603039D01*
X139890096Y-91603039D01*
X139930754Y-91737087D01*
X140050963Y-91991420D01*
X140218481Y-92217414D01*
X140426869Y-92406385D01*
X140668119Y-92551070D01*
X140932960Y-92645909D01*
X141155000Y-92524624D01*
X141155000Y-91381000D01*
X141409000Y-91381000D01*
X141409000Y-92524624D01*
X141631040Y-92645909D01*
X141895881Y-92551070D01*
X142137131Y-92406385D01*
X142345519Y-92217414D01*
X142513037Y-91991420D01*
X142633246Y-91737087D01*
X142673904Y-91603039D01*
X142551915Y-91381000D01*
X141409000Y-91381000D01*
X141155000Y-91381000D01*
X140012085Y-91381000D01*
X139890096Y-91603039D01*
X139083711Y-91603039D01*
X139110000Y-91576750D01*
X139113072Y-91325000D01*
X139100812Y-91200518D01*
X139064502Y-91080820D01*
X139005537Y-90970506D01*
X138966226Y-90922606D01*
X139046423Y-90772567D01*
X139096248Y-90608316D01*
X139113072Y-90437500D01*
X139113072Y-89837500D01*
X139096248Y-89666684D01*
X139046423Y-89502433D01*
X138965512Y-89351058D01*
X138885000Y-89252954D01*
X138885000Y-88766578D01*
X140365091Y-87286487D01*
X140367241Y-87288637D01*
X140599759Y-87444000D01*
X140367241Y-87599363D01*
X140167363Y-87799241D01*
X140010320Y-88034273D01*
X139902147Y-88295426D01*
X139847000Y-88572665D01*
X139847000Y-88855335D01*
X139902147Y-89132574D01*
X140010320Y-89393727D01*
X140167363Y-89628759D01*
X140367241Y-89828637D01*
X140602273Y-89985680D01*
X140612865Y-89990067D01*
X140426869Y-90101615D01*
X140218481Y-90290586D01*
X140050963Y-90516580D01*
X139930754Y-90770913D01*
X139890096Y-90904961D01*
X140012085Y-91127000D01*
X141155000Y-91127000D01*
X141155000Y-91107000D01*
X141409000Y-91107000D01*
X141409000Y-91127000D01*
X142551915Y-91127000D01*
X142673904Y-90904961D01*
X142633246Y-90770913D01*
X142513037Y-90516580D01*
X142345519Y-90290586D01*
X142137131Y-90101615D01*
X141951135Y-89990067D01*
X141961727Y-89985680D01*
X142196759Y-89828637D01*
X142396637Y-89628759D01*
X142553680Y-89393727D01*
X142661853Y-89132574D01*
X142717000Y-88855335D01*
X142717000Y-88572665D01*
X142661853Y-88295426D01*
X142553680Y-88034273D01*
X142396637Y-87799241D01*
X142196759Y-87599363D01*
X141964241Y-87444000D01*
X142196759Y-87288637D01*
X142396637Y-87088759D01*
X142416521Y-87059000D01*
X142532531Y-87059000D01*
X142576000Y-87063281D01*
X142619469Y-87059000D01*
X142619477Y-87059000D01*
X142749490Y-87046195D01*
X142916313Y-86995589D01*
X143070059Y-86913411D01*
X143204817Y-86802817D01*
X143232534Y-86769044D01*
X143495044Y-86506534D01*
X143528817Y-86478817D01*
X143639411Y-86344059D01*
X143721589Y-86190313D01*
X143772195Y-86023490D01*
X143785000Y-85893477D01*
X143785000Y-85893467D01*
X143789281Y-85850001D01*
X143785000Y-85806535D01*
X143785000Y-75216578D01*
X143986597Y-75014982D01*
X144027730Y-75091936D01*
X144003463Y-75121506D01*
X143944498Y-75231820D01*
X143908188Y-75351518D01*
X143895928Y-75476000D01*
X143899000Y-75490250D01*
X144057750Y-75649000D01*
X145382000Y-75649000D01*
X145382000Y-75629000D01*
X145636000Y-75629000D01*
X145636000Y-75649000D01*
X145656000Y-75649000D01*
X145656000Y-75903000D01*
X145636000Y-75903000D01*
X145636000Y-75923000D01*
X145382000Y-75923000D01*
X145382000Y-75903000D01*
X144057750Y-75903000D01*
X143899000Y-76061750D01*
X143895928Y-76076000D01*
X143908188Y-76200482D01*
X143944498Y-76320180D01*
X144003463Y-76430494D01*
X144027730Y-76460064D01*
X143955916Y-76594418D01*
X143911071Y-76742255D01*
X143895928Y-76896000D01*
X143895928Y-77196000D01*
X143911071Y-77349745D01*
X143955916Y-77497582D01*
X144027730Y-77631936D01*
X144003463Y-77661506D01*
X143944498Y-77771820D01*
X143908188Y-77891518D01*
X143895928Y-78016000D01*
X143899000Y-78030250D01*
X144057750Y-78189000D01*
X145382000Y-78189000D01*
X145382000Y-78169000D01*
X145636000Y-78169000D01*
X145636000Y-78189000D01*
X145656000Y-78189000D01*
X145656000Y-78443000D01*
X145636000Y-78443000D01*
X145636000Y-78463000D01*
X145382000Y-78463000D01*
X145382000Y-78443000D01*
X144057750Y-78443000D01*
X143899000Y-78601750D01*
X143895928Y-78616000D01*
X143908188Y-78740482D01*
X143944498Y-78860180D01*
X144003463Y-78970494D01*
X144027730Y-79000064D01*
X143955916Y-79134418D01*
X143911071Y-79282255D01*
X143895928Y-79436000D01*
X143895928Y-79736000D01*
X143911071Y-79889745D01*
X143955916Y-80037582D01*
X144028742Y-80173829D01*
X144126749Y-80293251D01*
X144246171Y-80391258D01*
X144382418Y-80464084D01*
X144530255Y-80508929D01*
X144684000Y-80524072D01*
X145195494Y-80524072D01*
X145915001Y-81243580D01*
X145915000Y-90006531D01*
X145910719Y-90050000D01*
X145915000Y-90093469D01*
X145915000Y-90093476D01*
X145927805Y-90223489D01*
X145978411Y-90390312D01*
X146060589Y-90544058D01*
X146171183Y-90678817D01*
X146204956Y-90706534D01*
X147347470Y-91849049D01*
X147375183Y-91882817D01*
X147408951Y-91910530D01*
X147408953Y-91910532D01*
X147437216Y-91933727D01*
X147509941Y-91993411D01*
X147663687Y-92075589D01*
X147740724Y-92098958D01*
X147787363Y-92168759D01*
X147987241Y-92368637D01*
X148222273Y-92525680D01*
X148483426Y-92633853D01*
X148760665Y-92689000D01*
X149043335Y-92689000D01*
X149320574Y-92633853D01*
X149581727Y-92525680D01*
X149816759Y-92368637D01*
X150016637Y-92168759D01*
X150036521Y-92139000D01*
X150202531Y-92139000D01*
X150246000Y-92143281D01*
X150289469Y-92139000D01*
X150289477Y-92139000D01*
X150419490Y-92126195D01*
X150586313Y-92075589D01*
X150740059Y-91993411D01*
X150874817Y-91882817D01*
X150902534Y-91849044D01*
X151595050Y-91156529D01*
X151628817Y-91128817D01*
X151668208Y-91080820D01*
X151739410Y-90994060D01*
X151739411Y-90994059D01*
X151821589Y-90840313D01*
X151872195Y-90673490D01*
X151885000Y-90543477D01*
X151885000Y-90543467D01*
X151889281Y-90500001D01*
X151885000Y-90456534D01*
X151885000Y-82293469D01*
X151889281Y-82250000D01*
X151885000Y-82206531D01*
X151885000Y-82206523D01*
X151872195Y-82076510D01*
X151821589Y-81909687D01*
X151739411Y-81755941D01*
X151628817Y-81621183D01*
X151595049Y-81593470D01*
X151127002Y-81125424D01*
X151127002Y-81113752D01*
X151285750Y-81272500D01*
X151475000Y-81275572D01*
X151599482Y-81263312D01*
X151719180Y-81227002D01*
X151829494Y-81168037D01*
X151926185Y-81088685D01*
X152005537Y-80991994D01*
X152064502Y-80881680D01*
X152100812Y-80761982D01*
X152113072Y-80637500D01*
X152110000Y-80385750D01*
X151951250Y-80227000D01*
X151127000Y-80227000D01*
X151127000Y-80247000D01*
X150873000Y-80247000D01*
X150873000Y-80227000D01*
X150853000Y-80227000D01*
X150853000Y-79973000D01*
X150873000Y-79973000D01*
X150873000Y-79953000D01*
X151127000Y-79953000D01*
X151127000Y-79973000D01*
X151951250Y-79973000D01*
X152110000Y-79814250D01*
X152113072Y-79562500D01*
X152100812Y-79438018D01*
X152064502Y-79318320D01*
X152005537Y-79208006D01*
X151966226Y-79160106D01*
X152046423Y-79010067D01*
X152096248Y-78845816D01*
X152113072Y-78675000D01*
X152113072Y-78075000D01*
X152096248Y-77904184D01*
X152046423Y-77739933D01*
X151965512Y-77588558D01*
X151856623Y-77455877D01*
X151723942Y-77346988D01*
X151572567Y-77266077D01*
X151408316Y-77216252D01*
X151237500Y-77199428D01*
X150762500Y-77199428D01*
X150680783Y-77207476D01*
X150745226Y-77051898D01*
X150785000Y-76851939D01*
X150785000Y-76648061D01*
X150745226Y-76448102D01*
X150667205Y-76259744D01*
X150635000Y-76211546D01*
X150635000Y-76043469D01*
X150639281Y-76000000D01*
X150635000Y-75956531D01*
X150635000Y-75956523D01*
X150629323Y-75898879D01*
X150714250Y-75897500D01*
X150873000Y-75738750D01*
X150873000Y-74852000D01*
X151127000Y-74852000D01*
X151127000Y-75738750D01*
X151285750Y-75897500D01*
X151475000Y-75900572D01*
X151599482Y-75888312D01*
X151719180Y-75852002D01*
X151829494Y-75793037D01*
X151926185Y-75713685D01*
X152005537Y-75616994D01*
X152064502Y-75506680D01*
X152100812Y-75386982D01*
X152113072Y-75262500D01*
X152110000Y-75010750D01*
X151951250Y-74852000D01*
X151127000Y-74852000D01*
X150873000Y-74852000D01*
X150048750Y-74852000D01*
X149951164Y-74949586D01*
X149613072Y-74611494D01*
X149613072Y-74500000D01*
X149596248Y-74329184D01*
X149546423Y-74164933D01*
X149465512Y-74013558D01*
X149360007Y-73885000D01*
X149966671Y-73885000D01*
X149935498Y-73943320D01*
X149899188Y-74063018D01*
X149886928Y-74187500D01*
X149890000Y-74439250D01*
X150048750Y-74598000D01*
X150873000Y-74598000D01*
X150873000Y-74578000D01*
X151127000Y-74578000D01*
X151127000Y-74598000D01*
X151951250Y-74598000D01*
X152110000Y-74439250D01*
X152113072Y-74187500D01*
X152100812Y-74063018D01*
X152064502Y-73943320D01*
X152005537Y-73833006D01*
X151966226Y-73785106D01*
X152046423Y-73635067D01*
X152096248Y-73470816D01*
X152113072Y-73300000D01*
X152113072Y-72700000D01*
X152096248Y-72529184D01*
X152046423Y-72364933D01*
X151965512Y-72213558D01*
X151856623Y-72080877D01*
X151723942Y-71971988D01*
X151572567Y-71891077D01*
X151408316Y-71841252D01*
X151237500Y-71824428D01*
X150762500Y-71824428D01*
X150591684Y-71841252D01*
X150427433Y-71891077D01*
X150276058Y-71971988D01*
X150143377Y-72080877D01*
X150115373Y-72115000D01*
X149405144Y-72115000D01*
X149356623Y-72055877D01*
X149223942Y-71946988D01*
X149072567Y-71866077D01*
X148908316Y-71816252D01*
X148737500Y-71799428D01*
X148626006Y-71799428D01*
X148197534Y-71370956D01*
X148169817Y-71337183D01*
X148035059Y-71226589D01*
X147881313Y-71144411D01*
X147714490Y-71093805D01*
X147584477Y-71081000D01*
X147584469Y-71081000D01*
X147541000Y-71076719D01*
X147497531Y-71081000D01*
X146612783Y-71081000D01*
X146487745Y-71043071D01*
X146334000Y-71027928D01*
X144684000Y-71027928D01*
X144530255Y-71043071D01*
X144512187Y-71048552D01*
X144489411Y-71005941D01*
X144406532Y-70904953D01*
X144406530Y-70904951D01*
X144378817Y-70871183D01*
X144345050Y-70843471D01*
X143406534Y-69904956D01*
X143378817Y-69871183D01*
X143244059Y-69760589D01*
X143090313Y-69678411D01*
X143029621Y-69660000D01*
X152340001Y-69660000D01*
X152340000Y-93340000D01*
X133660000Y-93340000D01*
X133660000Y-92400000D01*
X134386928Y-92400000D01*
X134399188Y-92524482D01*
X134435498Y-92644180D01*
X134494463Y-92754494D01*
X134573815Y-92851185D01*
X134670506Y-92930537D01*
X134780820Y-92989502D01*
X134900518Y-93025812D01*
X135025000Y-93038072D01*
X135214250Y-93035000D01*
X135373000Y-92876250D01*
X135373000Y-92039500D01*
X135627000Y-92039500D01*
X135627000Y-92876250D01*
X135785750Y-93035000D01*
X135975000Y-93038072D01*
X136099482Y-93025812D01*
X136219180Y-92989502D01*
X136329494Y-92930537D01*
X136426185Y-92851185D01*
X136505537Y-92754494D01*
X136564502Y-92644180D01*
X136600812Y-92524482D01*
X136613072Y-92400000D01*
X136886928Y-92400000D01*
X136899188Y-92524482D01*
X136935498Y-92644180D01*
X136994463Y-92754494D01*
X137073815Y-92851185D01*
X137170506Y-92930537D01*
X137280820Y-92989502D01*
X137400518Y-93025812D01*
X137525000Y-93038072D01*
X137714250Y-93035000D01*
X137873000Y-92876250D01*
X137873000Y-91989500D01*
X138127000Y-91989500D01*
X138127000Y-92876250D01*
X138285750Y-93035000D01*
X138475000Y-93038072D01*
X138599482Y-93025812D01*
X138719180Y-92989502D01*
X138829494Y-92930537D01*
X138926185Y-92851185D01*
X139005537Y-92754494D01*
X139064502Y-92644180D01*
X139100812Y-92524482D01*
X139113072Y-92400000D01*
X139110000Y-92148250D01*
X138951250Y-91989500D01*
X138127000Y-91989500D01*
X137873000Y-91989500D01*
X137048750Y-91989500D01*
X136890000Y-92148250D01*
X136886928Y-92400000D01*
X136613072Y-92400000D01*
X136610000Y-92198250D01*
X136451250Y-92039500D01*
X135627000Y-92039500D01*
X135373000Y-92039500D01*
X134548750Y-92039500D01*
X134390000Y-92198250D01*
X134386928Y-92400000D01*
X133660000Y-92400000D01*
X133660000Y-82200000D01*
X135611928Y-82200000D01*
X135615000Y-82414250D01*
X135773750Y-82573000D01*
X136873000Y-82573000D01*
X136873000Y-81723750D01*
X136714250Y-81565000D01*
X136250000Y-81561928D01*
X136125518Y-81574188D01*
X136005820Y-81610498D01*
X135895506Y-81669463D01*
X135798815Y-81748815D01*
X135719463Y-81845506D01*
X135660498Y-81955820D01*
X135624188Y-82075518D01*
X135611928Y-82200000D01*
X133660000Y-82200000D01*
X133660000Y-77212500D01*
X133886928Y-77212500D01*
X133890000Y-77414250D01*
X134048750Y-77573000D01*
X134873000Y-77573000D01*
X134873000Y-76736250D01*
X135127000Y-76736250D01*
X135127000Y-77573000D01*
X135951250Y-77573000D01*
X136110000Y-77414250D01*
X136112691Y-77237500D01*
X136386928Y-77237500D01*
X136390000Y-77489250D01*
X136548750Y-77648000D01*
X137373000Y-77648000D01*
X137373000Y-76761250D01*
X137627000Y-76761250D01*
X137627000Y-77648000D01*
X138451250Y-77648000D01*
X138610000Y-77489250D01*
X138613072Y-77237500D01*
X138600812Y-77113018D01*
X138564502Y-76993320D01*
X138505537Y-76883006D01*
X138426185Y-76786315D01*
X138329494Y-76706963D01*
X138219180Y-76647998D01*
X138099482Y-76611688D01*
X137975000Y-76599428D01*
X137785750Y-76602500D01*
X137627000Y-76761250D01*
X137373000Y-76761250D01*
X137214250Y-76602500D01*
X137025000Y-76599428D01*
X136900518Y-76611688D01*
X136780820Y-76647998D01*
X136670506Y-76706963D01*
X136573815Y-76786315D01*
X136494463Y-76883006D01*
X136435498Y-76993320D01*
X136399188Y-77113018D01*
X136386928Y-77237500D01*
X136112691Y-77237500D01*
X136113072Y-77212500D01*
X136100812Y-77088018D01*
X136064502Y-76968320D01*
X136005537Y-76858006D01*
X135926185Y-76761315D01*
X135829494Y-76681963D01*
X135719180Y-76622998D01*
X135599482Y-76586688D01*
X135475000Y-76574428D01*
X135285750Y-76577500D01*
X135127000Y-76736250D01*
X134873000Y-76736250D01*
X134714250Y-76577500D01*
X134525000Y-76574428D01*
X134400518Y-76586688D01*
X134280820Y-76622998D01*
X134170506Y-76681963D01*
X134073815Y-76761315D01*
X133994463Y-76858006D01*
X133935498Y-76968320D01*
X133899188Y-77088018D01*
X133886928Y-77212500D01*
X133660000Y-77212500D01*
X133660000Y-72487500D01*
X133886928Y-72487500D01*
X133890000Y-72739250D01*
X134048750Y-72898000D01*
X134873000Y-72898000D01*
X134873000Y-72011250D01*
X135127000Y-72011250D01*
X135127000Y-72898000D01*
X135951250Y-72898000D01*
X136110000Y-72739250D01*
X136113072Y-72487500D01*
X136100812Y-72363018D01*
X136064502Y-72243320D01*
X136005537Y-72133006D01*
X135926185Y-72036315D01*
X135829494Y-71956963D01*
X135719180Y-71897998D01*
X135599482Y-71861688D01*
X135475000Y-71849428D01*
X135285750Y-71852500D01*
X135127000Y-72011250D01*
X134873000Y-72011250D01*
X134714250Y-71852500D01*
X134525000Y-71849428D01*
X134400518Y-71861688D01*
X134280820Y-71897998D01*
X134170506Y-71956963D01*
X134073815Y-72036315D01*
X133994463Y-72133006D01*
X133935498Y-72243320D01*
X133899188Y-72363018D01*
X133886928Y-72487500D01*
X133660000Y-72487500D01*
X133660000Y-69660000D01*
X137595379Y-69660000D01*
X137534687Y-69678411D01*
%TA.AperFunction,Conductor*%
D16*
G36*
X137534687Y-69678411D02*
G01*
X137380941Y-69760589D01*
X137246183Y-69871183D01*
X137218466Y-69904956D01*
X136904952Y-70218470D01*
X136871184Y-70246183D01*
X136843471Y-70279951D01*
X136843468Y-70279954D01*
X136760590Y-70380941D01*
X136678412Y-70534687D01*
X136627805Y-70701510D01*
X136610719Y-70875000D01*
X136615001Y-70918479D01*
X136615000Y-72090454D01*
X136534488Y-72188558D01*
X136453577Y-72339933D01*
X136403752Y-72504184D01*
X136386928Y-72675000D01*
X136386928Y-73175000D01*
X136403752Y-73345816D01*
X136453577Y-73510067D01*
X136534488Y-73661442D01*
X136643377Y-73794123D01*
X136696232Y-73837500D01*
X136662723Y-73865000D01*
X136033329Y-73865000D01*
X136064502Y-73806680D01*
X136100812Y-73686982D01*
X136113072Y-73562500D01*
X136110000Y-73310750D01*
X135951250Y-73152000D01*
X135127000Y-73152000D01*
X135127000Y-73172000D01*
X134873000Y-73172000D01*
X134873000Y-73152000D01*
X134048750Y-73152000D01*
X133890000Y-73310750D01*
X133886928Y-73562500D01*
X133899188Y-73686982D01*
X133935498Y-73806680D01*
X133994463Y-73916994D01*
X134033774Y-73964894D01*
X133953577Y-74114933D01*
X133903752Y-74279184D01*
X133886928Y-74450000D01*
X133886928Y-75050000D01*
X133903752Y-75220816D01*
X133953577Y-75385067D01*
X134034488Y-75536442D01*
X134143377Y-75669123D01*
X134276058Y-75778012D01*
X134427433Y-75858923D01*
X134591684Y-75908748D01*
X134762500Y-75925572D01*
X135237500Y-75925572D01*
X135408316Y-75908748D01*
X135572567Y-75858923D01*
X135723942Y-75778012D01*
X135856623Y-75669123D01*
X135884627Y-75635000D01*
X136662723Y-75635000D01*
X136776058Y-75728012D01*
X136927433Y-75808923D01*
X137091684Y-75858748D01*
X137262500Y-75875572D01*
X137737500Y-75875572D01*
X137908316Y-75858748D01*
X138072567Y-75808923D01*
X138223942Y-75728012D01*
X138337277Y-75635000D01*
X138945928Y-75635000D01*
X138945928Y-75926000D01*
X138961071Y-76079745D01*
X139005916Y-76227582D01*
X139078742Y-76363829D01*
X139117454Y-76411000D01*
X139078742Y-76458171D01*
X139005916Y-76594418D01*
X138961071Y-76742255D01*
X138945928Y-76896000D01*
X138945928Y-77196000D01*
X138961071Y-77349745D01*
X139005916Y-77497582D01*
X139078742Y-77633829D01*
X139117454Y-77681000D01*
X139078742Y-77728171D01*
X139005916Y-77864418D01*
X138961071Y-78012255D01*
X138945928Y-78166000D01*
X138945928Y-78466000D01*
X138960604Y-78615000D01*
X138533329Y-78615000D01*
X138564502Y-78556680D01*
X138600812Y-78436982D01*
X138613072Y-78312500D01*
X138610000Y-78060750D01*
X138451250Y-77902000D01*
X137627000Y-77902000D01*
X137627000Y-77922000D01*
X137373000Y-77922000D01*
X137373000Y-77902000D01*
X136548750Y-77902000D01*
X136390000Y-78060750D01*
X136386928Y-78312500D01*
X136399188Y-78436982D01*
X136435498Y-78556680D01*
X136480034Y-78640000D01*
X135924583Y-78640000D01*
X135926185Y-78638685D01*
X136005537Y-78541994D01*
X136064502Y-78431680D01*
X136100812Y-78311982D01*
X136113072Y-78187500D01*
X136110000Y-77985750D01*
X135951250Y-77827000D01*
X135127000Y-77827000D01*
X135127000Y-77847000D01*
X134873000Y-77847000D01*
X134873000Y-77827000D01*
X134048750Y-77827000D01*
X133890000Y-77985750D01*
X133886928Y-78187500D01*
X133899188Y-78311982D01*
X133935498Y-78431680D01*
X133994463Y-78541994D01*
X134073815Y-78638685D01*
X134123812Y-78679717D01*
X134034488Y-78788558D01*
X133953577Y-78939933D01*
X133903752Y-79104184D01*
X133886928Y-79275000D01*
X133886928Y-79775000D01*
X133903752Y-79945816D01*
X133953577Y-80110067D01*
X134034488Y-80261442D01*
X134143377Y-80394123D01*
X134276058Y-80503012D01*
X134427433Y-80583923D01*
X134591684Y-80633748D01*
X134762500Y-80650572D01*
X135237500Y-80650572D01*
X135408316Y-80633748D01*
X135572567Y-80583923D01*
X135723942Y-80503012D01*
X135837277Y-80410000D01*
X136635890Y-80410000D01*
X136643377Y-80419123D01*
X136776058Y-80528012D01*
X136927433Y-80608923D01*
X137091684Y-80658748D01*
X137262500Y-80675572D01*
X137737500Y-80675572D01*
X137908316Y-80658748D01*
X138072567Y-80608923D01*
X138223942Y-80528012D01*
X138356623Y-80419123D01*
X138384627Y-80385000D01*
X139163421Y-80385000D01*
X138404951Y-81143471D01*
X138371184Y-81171183D01*
X138343471Y-81204951D01*
X138343468Y-81204954D01*
X138260590Y-81305941D01*
X138178412Y-81459687D01*
X138127805Y-81626510D01*
X138122148Y-81683951D01*
X138104494Y-81669463D01*
X137994180Y-81610498D01*
X137874482Y-81574188D01*
X137750000Y-81561928D01*
X137285750Y-81565000D01*
X137127000Y-81723750D01*
X137127000Y-82573000D01*
X137147000Y-82573000D01*
X137147000Y-82827000D01*
X137127000Y-82827000D01*
X137127000Y-82847000D01*
X136873000Y-82847000D01*
X136873000Y-82827000D01*
X135773750Y-82827000D01*
X135615000Y-82985750D01*
X135611928Y-83200000D01*
X135624188Y-83324482D01*
X135631929Y-83350000D01*
X135624188Y-83375518D01*
X135611928Y-83500000D01*
X135611928Y-84500000D01*
X135624188Y-84624482D01*
X135631929Y-84650000D01*
X135624188Y-84675518D01*
X135611928Y-84800000D01*
X135611928Y-85800000D01*
X135624188Y-85924482D01*
X135660498Y-86044180D01*
X135719463Y-86154494D01*
X135798815Y-86251185D01*
X135895506Y-86330537D01*
X136005820Y-86389502D01*
X136125518Y-86425812D01*
X136250000Y-86438072D01*
X137750000Y-86438072D01*
X137874482Y-86425812D01*
X137994180Y-86389502D01*
X138104494Y-86330537D01*
X138201185Y-86251185D01*
X138255501Y-86185000D01*
X138456531Y-86185000D01*
X138500000Y-86189281D01*
X138543469Y-86185000D01*
X138543477Y-86185000D01*
X138673490Y-86172195D01*
X138840313Y-86121589D01*
X138994059Y-86039411D01*
X139128817Y-85928817D01*
X139156534Y-85895044D01*
X139345043Y-85706535D01*
X139401898Y-85695226D01*
X139489468Y-85658953D01*
X137404956Y-87743466D01*
X137371183Y-87771183D01*
X137260589Y-87905942D01*
X137178411Y-88059688D01*
X137127805Y-88226511D01*
X137115000Y-88356524D01*
X137115000Y-88356531D01*
X137110719Y-88400000D01*
X137115000Y-88443469D01*
X137115000Y-89202500D01*
X136337277Y-89202500D01*
X136223942Y-89109488D01*
X136072567Y-89028577D01*
X135908316Y-88978752D01*
X135737500Y-88961928D01*
X135262500Y-88961928D01*
X135091684Y-88978752D01*
X134927433Y-89028577D01*
X134776058Y-89109488D01*
X134643377Y-89218377D01*
X134534488Y-89351058D01*
X134453577Y-89502433D01*
X134403752Y-89666684D01*
X134386928Y-89837500D01*
X134386928Y-90337500D01*
X134403752Y-90508316D01*
X134453577Y-90672567D01*
X134534488Y-90823942D01*
X134623812Y-90932783D01*
X134573815Y-90973815D01*
X134494463Y-91070506D01*
X134435498Y-91180820D01*
X134399188Y-91300518D01*
X134386928Y-91425000D01*
X134390000Y-91626750D01*
X134548750Y-91785500D01*
X135373000Y-91785500D01*
X135373000Y-91765500D01*
X135627000Y-91765500D01*
X135627000Y-91785500D01*
X136451250Y-91785500D01*
X136610000Y-91626750D01*
X136613072Y-91425000D01*
X136600812Y-91300518D01*
X136564502Y-91180820D01*
X136505537Y-91070506D01*
X136426185Y-90973815D01*
X136424583Y-90972500D01*
X136993397Y-90972500D01*
X136935498Y-91080820D01*
X136899188Y-91200518D01*
X136886928Y-91325000D01*
X136890000Y-91576750D01*
X137048750Y-91735500D01*
X137873000Y-91735500D01*
X137873000Y-91715500D01*
X138127000Y-91715500D01*
X138127000Y-91735500D01*
X138951250Y-91735500D01*
X139083711Y-91603039D01*
X139890096Y-91603039D01*
X139930754Y-91737087D01*
X140050963Y-91991420D01*
X140218481Y-92217414D01*
X140426869Y-92406385D01*
X140668119Y-92551070D01*
X140932960Y-92645909D01*
X141155000Y-92524624D01*
X141155000Y-91381000D01*
X141409000Y-91381000D01*
X141409000Y-92524624D01*
X141631040Y-92645909D01*
X141895881Y-92551070D01*
X142137131Y-92406385D01*
X142345519Y-92217414D01*
X142513037Y-91991420D01*
X142633246Y-91737087D01*
X142673904Y-91603039D01*
X142551915Y-91381000D01*
X141409000Y-91381000D01*
X141155000Y-91381000D01*
X140012085Y-91381000D01*
X139890096Y-91603039D01*
X139083711Y-91603039D01*
X139110000Y-91576750D01*
X139113072Y-91325000D01*
X139100812Y-91200518D01*
X139064502Y-91080820D01*
X139005537Y-90970506D01*
X138966226Y-90922606D01*
X139046423Y-90772567D01*
X139096248Y-90608316D01*
X139113072Y-90437500D01*
X139113072Y-89837500D01*
X139096248Y-89666684D01*
X139046423Y-89502433D01*
X138965512Y-89351058D01*
X138885000Y-89252954D01*
X138885000Y-88766578D01*
X140365091Y-87286487D01*
X140367241Y-87288637D01*
X140599759Y-87444000D01*
X140367241Y-87599363D01*
X140167363Y-87799241D01*
X140010320Y-88034273D01*
X139902147Y-88295426D01*
X139847000Y-88572665D01*
X139847000Y-88855335D01*
X139902147Y-89132574D01*
X140010320Y-89393727D01*
X140167363Y-89628759D01*
X140367241Y-89828637D01*
X140602273Y-89985680D01*
X140612865Y-89990067D01*
X140426869Y-90101615D01*
X140218481Y-90290586D01*
X140050963Y-90516580D01*
X139930754Y-90770913D01*
X139890096Y-90904961D01*
X140012085Y-91127000D01*
X141155000Y-91127000D01*
X141155000Y-91107000D01*
X141409000Y-91107000D01*
X141409000Y-91127000D01*
X142551915Y-91127000D01*
X142673904Y-90904961D01*
X142633246Y-90770913D01*
X142513037Y-90516580D01*
X142345519Y-90290586D01*
X142137131Y-90101615D01*
X141951135Y-89990067D01*
X141961727Y-89985680D01*
X142196759Y-89828637D01*
X142396637Y-89628759D01*
X142553680Y-89393727D01*
X142661853Y-89132574D01*
X142717000Y-88855335D01*
X142717000Y-88572665D01*
X142661853Y-88295426D01*
X142553680Y-88034273D01*
X142396637Y-87799241D01*
X142196759Y-87599363D01*
X141964241Y-87444000D01*
X142196759Y-87288637D01*
X142396637Y-87088759D01*
X142416521Y-87059000D01*
X142532531Y-87059000D01*
X142576000Y-87063281D01*
X142619469Y-87059000D01*
X142619477Y-87059000D01*
X142749490Y-87046195D01*
X142916313Y-86995589D01*
X143070059Y-86913411D01*
X143204817Y-86802817D01*
X143232534Y-86769044D01*
X143495044Y-86506534D01*
X143528817Y-86478817D01*
X143639411Y-86344059D01*
X143721589Y-86190313D01*
X143772195Y-86023490D01*
X143785000Y-85893477D01*
X143785000Y-85893467D01*
X143789281Y-85850001D01*
X143785000Y-85806535D01*
X143785000Y-75216578D01*
X143986597Y-75014982D01*
X144027730Y-75091936D01*
X144003463Y-75121506D01*
X143944498Y-75231820D01*
X143908188Y-75351518D01*
X143895928Y-75476000D01*
X143899000Y-75490250D01*
X144057750Y-75649000D01*
X145382000Y-75649000D01*
X145382000Y-75629000D01*
X145636000Y-75629000D01*
X145636000Y-75649000D01*
X145656000Y-75649000D01*
X145656000Y-75903000D01*
X145636000Y-75903000D01*
X145636000Y-75923000D01*
X145382000Y-75923000D01*
X145382000Y-75903000D01*
X144057750Y-75903000D01*
X143899000Y-76061750D01*
X143895928Y-76076000D01*
X143908188Y-76200482D01*
X143944498Y-76320180D01*
X144003463Y-76430494D01*
X144027730Y-76460064D01*
X143955916Y-76594418D01*
X143911071Y-76742255D01*
X143895928Y-76896000D01*
X143895928Y-77196000D01*
X143911071Y-77349745D01*
X143955916Y-77497582D01*
X144027730Y-77631936D01*
X144003463Y-77661506D01*
X143944498Y-77771820D01*
X143908188Y-77891518D01*
X143895928Y-78016000D01*
X143899000Y-78030250D01*
X144057750Y-78189000D01*
X145382000Y-78189000D01*
X145382000Y-78169000D01*
X145636000Y-78169000D01*
X145636000Y-78189000D01*
X145656000Y-78189000D01*
X145656000Y-78443000D01*
X145636000Y-78443000D01*
X145636000Y-78463000D01*
X145382000Y-78463000D01*
X145382000Y-78443000D01*
X144057750Y-78443000D01*
X143899000Y-78601750D01*
X143895928Y-78616000D01*
X143908188Y-78740482D01*
X143944498Y-78860180D01*
X144003463Y-78970494D01*
X144027730Y-79000064D01*
X143955916Y-79134418D01*
X143911071Y-79282255D01*
X143895928Y-79436000D01*
X143895928Y-79736000D01*
X143911071Y-79889745D01*
X143955916Y-80037582D01*
X144028742Y-80173829D01*
X144126749Y-80293251D01*
X144246171Y-80391258D01*
X144382418Y-80464084D01*
X144530255Y-80508929D01*
X144684000Y-80524072D01*
X145195494Y-80524072D01*
X145915001Y-81243580D01*
X145915000Y-90006531D01*
X145910719Y-90050000D01*
X145915000Y-90093469D01*
X145915000Y-90093476D01*
X145927805Y-90223489D01*
X145978411Y-90390312D01*
X146060589Y-90544058D01*
X146171183Y-90678817D01*
X146204956Y-90706534D01*
X147347470Y-91849049D01*
X147375183Y-91882817D01*
X147408951Y-91910530D01*
X147408953Y-91910532D01*
X147437216Y-91933727D01*
X147509941Y-91993411D01*
X147663687Y-92075589D01*
X147740724Y-92098958D01*
X147787363Y-92168759D01*
X147987241Y-92368637D01*
X148222273Y-92525680D01*
X148483426Y-92633853D01*
X148760665Y-92689000D01*
X149043335Y-92689000D01*
X149320574Y-92633853D01*
X149581727Y-92525680D01*
X149816759Y-92368637D01*
X150016637Y-92168759D01*
X150036521Y-92139000D01*
X150202531Y-92139000D01*
X150246000Y-92143281D01*
X150289469Y-92139000D01*
X150289477Y-92139000D01*
X150419490Y-92126195D01*
X150586313Y-92075589D01*
X150740059Y-91993411D01*
X150874817Y-91882817D01*
X150902534Y-91849044D01*
X151595050Y-91156529D01*
X151628817Y-91128817D01*
X151668208Y-91080820D01*
X151739410Y-90994060D01*
X151739411Y-90994059D01*
X151821589Y-90840313D01*
X151872195Y-90673490D01*
X151885000Y-90543477D01*
X151885000Y-90543467D01*
X151889281Y-90500001D01*
X151885000Y-90456534D01*
X151885000Y-82293469D01*
X151889281Y-82250000D01*
X151885000Y-82206531D01*
X151885000Y-82206523D01*
X151872195Y-82076510D01*
X151821589Y-81909687D01*
X151739411Y-81755941D01*
X151628817Y-81621183D01*
X151595049Y-81593470D01*
X151127002Y-81125424D01*
X151127002Y-81113752D01*
X151285750Y-81272500D01*
X151475000Y-81275572D01*
X151599482Y-81263312D01*
X151719180Y-81227002D01*
X151829494Y-81168037D01*
X151926185Y-81088685D01*
X152005537Y-80991994D01*
X152064502Y-80881680D01*
X152100812Y-80761982D01*
X152113072Y-80637500D01*
X152110000Y-80385750D01*
X151951250Y-80227000D01*
X151127000Y-80227000D01*
X151127000Y-80247000D01*
X150873000Y-80247000D01*
X150873000Y-80227000D01*
X150853000Y-80227000D01*
X150853000Y-79973000D01*
X150873000Y-79973000D01*
X150873000Y-79953000D01*
X151127000Y-79953000D01*
X151127000Y-79973000D01*
X151951250Y-79973000D01*
X152110000Y-79814250D01*
X152113072Y-79562500D01*
X152100812Y-79438018D01*
X152064502Y-79318320D01*
X152005537Y-79208006D01*
X151966226Y-79160106D01*
X152046423Y-79010067D01*
X152096248Y-78845816D01*
X152113072Y-78675000D01*
X152113072Y-78075000D01*
X152096248Y-77904184D01*
X152046423Y-77739933D01*
X151965512Y-77588558D01*
X151856623Y-77455877D01*
X151723942Y-77346988D01*
X151572567Y-77266077D01*
X151408316Y-77216252D01*
X151237500Y-77199428D01*
X150762500Y-77199428D01*
X150680783Y-77207476D01*
X150745226Y-77051898D01*
X150785000Y-76851939D01*
X150785000Y-76648061D01*
X150745226Y-76448102D01*
X150667205Y-76259744D01*
X150635000Y-76211546D01*
X150635000Y-76043469D01*
X150639281Y-76000000D01*
X150635000Y-75956531D01*
X150635000Y-75956523D01*
X150629323Y-75898879D01*
X150714250Y-75897500D01*
X150873000Y-75738750D01*
X150873000Y-74852000D01*
X151127000Y-74852000D01*
X151127000Y-75738750D01*
X151285750Y-75897500D01*
X151475000Y-75900572D01*
X151599482Y-75888312D01*
X151719180Y-75852002D01*
X151829494Y-75793037D01*
X151926185Y-75713685D01*
X152005537Y-75616994D01*
X152064502Y-75506680D01*
X152100812Y-75386982D01*
X152113072Y-75262500D01*
X152110000Y-75010750D01*
X151951250Y-74852000D01*
X151127000Y-74852000D01*
X150873000Y-74852000D01*
X150048750Y-74852000D01*
X149951164Y-74949586D01*
X149613072Y-74611494D01*
X149613072Y-74500000D01*
X149596248Y-74329184D01*
X149546423Y-74164933D01*
X149465512Y-74013558D01*
X149360007Y-73885000D01*
X149966671Y-73885000D01*
X149935498Y-73943320D01*
X149899188Y-74063018D01*
X149886928Y-74187500D01*
X149890000Y-74439250D01*
X150048750Y-74598000D01*
X150873000Y-74598000D01*
X150873000Y-74578000D01*
X151127000Y-74578000D01*
X151127000Y-74598000D01*
X151951250Y-74598000D01*
X152110000Y-74439250D01*
X152113072Y-74187500D01*
X152100812Y-74063018D01*
X152064502Y-73943320D01*
X152005537Y-73833006D01*
X151966226Y-73785106D01*
X152046423Y-73635067D01*
X152096248Y-73470816D01*
X152113072Y-73300000D01*
X152113072Y-72700000D01*
X152096248Y-72529184D01*
X152046423Y-72364933D01*
X151965512Y-72213558D01*
X151856623Y-72080877D01*
X151723942Y-71971988D01*
X151572567Y-71891077D01*
X151408316Y-71841252D01*
X151237500Y-71824428D01*
X150762500Y-71824428D01*
X150591684Y-71841252D01*
X150427433Y-71891077D01*
X150276058Y-71971988D01*
X150143377Y-72080877D01*
X150115373Y-72115000D01*
X149405144Y-72115000D01*
X149356623Y-72055877D01*
X149223942Y-71946988D01*
X149072567Y-71866077D01*
X148908316Y-71816252D01*
X148737500Y-71799428D01*
X148626006Y-71799428D01*
X148197534Y-71370956D01*
X148169817Y-71337183D01*
X148035059Y-71226589D01*
X147881313Y-71144411D01*
X147714490Y-71093805D01*
X147584477Y-71081000D01*
X147584469Y-71081000D01*
X147541000Y-71076719D01*
X147497531Y-71081000D01*
X146612783Y-71081000D01*
X146487745Y-71043071D01*
X146334000Y-71027928D01*
X144684000Y-71027928D01*
X144530255Y-71043071D01*
X144512187Y-71048552D01*
X144489411Y-71005941D01*
X144406532Y-70904953D01*
X144406530Y-70904951D01*
X144378817Y-70871183D01*
X144345050Y-70843471D01*
X143406534Y-69904956D01*
X143378817Y-69871183D01*
X143244059Y-69760589D01*
X143090313Y-69678411D01*
X143029621Y-69660000D01*
X152340001Y-69660000D01*
X152340000Y-93340000D01*
X133660000Y-93340000D01*
X133660000Y-92400000D01*
X134386928Y-92400000D01*
X134399188Y-92524482D01*
X134435498Y-92644180D01*
X134494463Y-92754494D01*
X134573815Y-92851185D01*
X134670506Y-92930537D01*
X134780820Y-92989502D01*
X134900518Y-93025812D01*
X135025000Y-93038072D01*
X135214250Y-93035000D01*
X135373000Y-92876250D01*
X135373000Y-92039500D01*
X135627000Y-92039500D01*
X135627000Y-92876250D01*
X135785750Y-93035000D01*
X135975000Y-93038072D01*
X136099482Y-93025812D01*
X136219180Y-92989502D01*
X136329494Y-92930537D01*
X136426185Y-92851185D01*
X136505537Y-92754494D01*
X136564502Y-92644180D01*
X136600812Y-92524482D01*
X136613072Y-92400000D01*
X136886928Y-92400000D01*
X136899188Y-92524482D01*
X136935498Y-92644180D01*
X136994463Y-92754494D01*
X137073815Y-92851185D01*
X137170506Y-92930537D01*
X137280820Y-92989502D01*
X137400518Y-93025812D01*
X137525000Y-93038072D01*
X137714250Y-93035000D01*
X137873000Y-92876250D01*
X137873000Y-91989500D01*
X138127000Y-91989500D01*
X138127000Y-92876250D01*
X138285750Y-93035000D01*
X138475000Y-93038072D01*
X138599482Y-93025812D01*
X138719180Y-92989502D01*
X138829494Y-92930537D01*
X138926185Y-92851185D01*
X139005537Y-92754494D01*
X139064502Y-92644180D01*
X139100812Y-92524482D01*
X139113072Y-92400000D01*
X139110000Y-92148250D01*
X138951250Y-91989500D01*
X138127000Y-91989500D01*
X137873000Y-91989500D01*
X137048750Y-91989500D01*
X136890000Y-92148250D01*
X136886928Y-92400000D01*
X136613072Y-92400000D01*
X136610000Y-92198250D01*
X136451250Y-92039500D01*
X135627000Y-92039500D01*
X135373000Y-92039500D01*
X134548750Y-92039500D01*
X134390000Y-92198250D01*
X134386928Y-92400000D01*
X133660000Y-92400000D01*
X133660000Y-82200000D01*
X135611928Y-82200000D01*
X135615000Y-82414250D01*
X135773750Y-82573000D01*
X136873000Y-82573000D01*
X136873000Y-81723750D01*
X136714250Y-81565000D01*
X136250000Y-81561928D01*
X136125518Y-81574188D01*
X136005820Y-81610498D01*
X135895506Y-81669463D01*
X135798815Y-81748815D01*
X135719463Y-81845506D01*
X135660498Y-81955820D01*
X135624188Y-82075518D01*
X135611928Y-82200000D01*
X133660000Y-82200000D01*
X133660000Y-77212500D01*
X133886928Y-77212500D01*
X133890000Y-77414250D01*
X134048750Y-77573000D01*
X134873000Y-77573000D01*
X134873000Y-76736250D01*
X135127000Y-76736250D01*
X135127000Y-77573000D01*
X135951250Y-77573000D01*
X136110000Y-77414250D01*
X136112691Y-77237500D01*
X136386928Y-77237500D01*
X136390000Y-77489250D01*
X136548750Y-77648000D01*
X137373000Y-77648000D01*
X137373000Y-76761250D01*
X137627000Y-76761250D01*
X137627000Y-77648000D01*
X138451250Y-77648000D01*
X138610000Y-77489250D01*
X138613072Y-77237500D01*
X138600812Y-77113018D01*
X138564502Y-76993320D01*
X138505537Y-76883006D01*
X138426185Y-76786315D01*
X138329494Y-76706963D01*
X138219180Y-76647998D01*
X138099482Y-76611688D01*
X137975000Y-76599428D01*
X137785750Y-76602500D01*
X137627000Y-76761250D01*
X137373000Y-76761250D01*
X137214250Y-76602500D01*
X137025000Y-76599428D01*
X136900518Y-76611688D01*
X136780820Y-76647998D01*
X136670506Y-76706963D01*
X136573815Y-76786315D01*
X136494463Y-76883006D01*
X136435498Y-76993320D01*
X136399188Y-77113018D01*
X136386928Y-77237500D01*
X136112691Y-77237500D01*
X136113072Y-77212500D01*
X136100812Y-77088018D01*
X136064502Y-76968320D01*
X136005537Y-76858006D01*
X135926185Y-76761315D01*
X135829494Y-76681963D01*
X135719180Y-76622998D01*
X135599482Y-76586688D01*
X135475000Y-76574428D01*
X135285750Y-76577500D01*
X135127000Y-76736250D01*
X134873000Y-76736250D01*
X134714250Y-76577500D01*
X134525000Y-76574428D01*
X134400518Y-76586688D01*
X134280820Y-76622998D01*
X134170506Y-76681963D01*
X134073815Y-76761315D01*
X133994463Y-76858006D01*
X133935498Y-76968320D01*
X133899188Y-77088018D01*
X133886928Y-77212500D01*
X133660000Y-77212500D01*
X133660000Y-72487500D01*
X133886928Y-72487500D01*
X133890000Y-72739250D01*
X134048750Y-72898000D01*
X134873000Y-72898000D01*
X134873000Y-72011250D01*
X135127000Y-72011250D01*
X135127000Y-72898000D01*
X135951250Y-72898000D01*
X136110000Y-72739250D01*
X136113072Y-72487500D01*
X136100812Y-72363018D01*
X136064502Y-72243320D01*
X136005537Y-72133006D01*
X135926185Y-72036315D01*
X135829494Y-71956963D01*
X135719180Y-71897998D01*
X135599482Y-71861688D01*
X135475000Y-71849428D01*
X135285750Y-71852500D01*
X135127000Y-72011250D01*
X134873000Y-72011250D01*
X134714250Y-71852500D01*
X134525000Y-71849428D01*
X134400518Y-71861688D01*
X134280820Y-71897998D01*
X134170506Y-71956963D01*
X134073815Y-72036315D01*
X133994463Y-72133006D01*
X133935498Y-72243320D01*
X133899188Y-72363018D01*
X133886928Y-72487500D01*
X133660000Y-72487500D01*
X133660000Y-69660000D01*
X137595379Y-69660000D01*
X137534687Y-69678411D01*
G37*
%TD.AperFunction*%
D15*
X149029000Y-88587000D02*
X149049000Y-88587000D01*
X149049000Y-88841000D01*
X149029000Y-88841000D01*
X149029000Y-88861000D01*
X148775000Y-88861000D01*
X148775000Y-88841000D01*
X148755000Y-88841000D01*
X148755000Y-88587000D01*
X148775000Y-88587000D01*
X148775000Y-88567000D01*
X149029000Y-88567000D01*
X149029000Y-88587000D01*
%TA.AperFunction,Conductor*%
D16*
G36*
X149029000Y-88587000D02*
G01*
X149049000Y-88587000D01*
X149049000Y-88841000D01*
X149029000Y-88841000D01*
X149029000Y-88861000D01*
X148775000Y-88861000D01*
X148775000Y-88841000D01*
X148755000Y-88841000D01*
X148755000Y-88587000D01*
X148775000Y-88587000D01*
X148775000Y-88567000D01*
X149029000Y-88567000D01*
X149029000Y-88587000D01*
G37*
%TD.AperFunction*%
D15*
X142015001Y-82196328D02*
X141567750Y-82199000D01*
X141409000Y-82357750D01*
X141409000Y-83507000D01*
X141429000Y-83507000D01*
X141429000Y-83761000D01*
X141409000Y-83761000D01*
X141409000Y-83781000D01*
X141155000Y-83781000D01*
X141155000Y-83761000D01*
X140005750Y-83761000D01*
X139847000Y-83919750D01*
X139846623Y-83982912D01*
X139759774Y-83896063D01*
X139590256Y-83782795D01*
X139401898Y-83704774D01*
X139322583Y-83688997D01*
X139595050Y-83416531D01*
X139628817Y-83388819D01*
X139662112Y-83348250D01*
X139715210Y-83283550D01*
X139739411Y-83254061D01*
X139821589Y-83100315D01*
X139845057Y-83022953D01*
X139847000Y-83348250D01*
X140005750Y-83507000D01*
X141155000Y-83507000D01*
X141155000Y-82357750D01*
X140996250Y-82199000D01*
X140482000Y-82195928D01*
X140357518Y-82208188D01*
X140237820Y-82244498D01*
X140127506Y-82303463D01*
X140030815Y-82382815D01*
X139951463Y-82479506D01*
X139892498Y-82589820D01*
X139885000Y-82614538D01*
X139885000Y-82166578D01*
X140416579Y-81635000D01*
X141506531Y-81635000D01*
X141550000Y-81639281D01*
X141593469Y-81635000D01*
X141593477Y-81635000D01*
X141723490Y-81622195D01*
X141890313Y-81571589D01*
X142015001Y-81504943D01*
X142015001Y-82196328D01*
%TA.AperFunction,Conductor*%
D16*
G36*
X142015001Y-82196328D02*
G01*
X141567750Y-82199000D01*
X141409000Y-82357750D01*
X141409000Y-83507000D01*
X141429000Y-83507000D01*
X141429000Y-83761000D01*
X141409000Y-83761000D01*
X141409000Y-83781000D01*
X141155000Y-83781000D01*
X141155000Y-83761000D01*
X140005750Y-83761000D01*
X139847000Y-83919750D01*
X139846623Y-83982912D01*
X139759774Y-83896063D01*
X139590256Y-83782795D01*
X139401898Y-83704774D01*
X139322583Y-83688997D01*
X139595050Y-83416531D01*
X139628817Y-83388819D01*
X139662112Y-83348250D01*
X139715210Y-83283550D01*
X139739411Y-83254061D01*
X139821589Y-83100315D01*
X139845057Y-83022953D01*
X139847000Y-83348250D01*
X140005750Y-83507000D01*
X141155000Y-83507000D01*
X141155000Y-82357750D01*
X140996250Y-82199000D01*
X140482000Y-82195928D01*
X140357518Y-82208188D01*
X140237820Y-82244498D01*
X140127506Y-82303463D01*
X140030815Y-82382815D01*
X139951463Y-82479506D01*
X139892498Y-82589820D01*
X139885000Y-82614538D01*
X139885000Y-82166578D01*
X140416579Y-81635000D01*
X141506531Y-81635000D01*
X141550000Y-81639281D01*
X141593469Y-81635000D01*
X141593477Y-81635000D01*
X141723490Y-81622195D01*
X141890313Y-81571589D01*
X142015001Y-81504943D01*
X142015001Y-82196328D01*
G37*
%TD.AperFunction*%
D15*
X139005916Y-71514418D02*
X138961071Y-71662255D01*
X138945928Y-71816000D01*
X138945928Y-72116000D01*
X138961071Y-72269745D01*
X139005916Y-72417582D01*
X139077730Y-72551936D01*
X139053463Y-72581506D01*
X138994498Y-72691820D01*
X138958188Y-72811518D01*
X138945928Y-72936000D01*
X138949000Y-72950250D01*
X139107750Y-73109000D01*
X140432000Y-73109000D01*
X140432000Y-73089000D01*
X140686000Y-73089000D01*
X140686000Y-73109000D01*
X142010250Y-73109000D01*
X142169000Y-72950250D01*
X142172072Y-72936000D01*
X142159812Y-72811518D01*
X142123502Y-72691820D01*
X142064537Y-72581506D01*
X142040270Y-72551936D01*
X142112084Y-72417582D01*
X142156929Y-72269745D01*
X142172072Y-72116000D01*
X142172072Y-71816000D01*
X142156929Y-71662255D01*
X142112084Y-71514418D01*
X142042908Y-71385000D01*
X142383422Y-71385000D01*
X142865000Y-71866579D01*
X142865001Y-73633420D01*
X142304956Y-74193466D01*
X142271183Y-74221183D01*
X142170836Y-74343455D01*
X142156929Y-74202255D01*
X142112084Y-74054418D01*
X142040270Y-73920064D01*
X142064537Y-73890494D01*
X142123502Y-73780180D01*
X142159812Y-73660482D01*
X142172072Y-73536000D01*
X142169000Y-73521750D01*
X142010250Y-73363000D01*
X140686000Y-73363000D01*
X140686000Y-73383000D01*
X140432000Y-73383000D01*
X140432000Y-73363000D01*
X139107750Y-73363000D01*
X138949000Y-73521750D01*
X138945928Y-73536000D01*
X138958188Y-73660482D01*
X138994498Y-73780180D01*
X139039836Y-73865000D01*
X138337277Y-73865000D01*
X138303768Y-73837500D01*
X138356623Y-73794123D01*
X138465512Y-73661442D01*
X138546423Y-73510067D01*
X138596248Y-73345816D01*
X138613072Y-73175000D01*
X138613072Y-72675000D01*
X138596248Y-72504184D01*
X138546423Y-72339933D01*
X138465512Y-72188558D01*
X138385000Y-72090454D01*
X138385000Y-71385000D01*
X139075092Y-71385000D01*
X139005916Y-71514418D01*
%TA.AperFunction,Conductor*%
D16*
G36*
X139005916Y-71514418D02*
G01*
X138961071Y-71662255D01*
X138945928Y-71816000D01*
X138945928Y-72116000D01*
X138961071Y-72269745D01*
X139005916Y-72417582D01*
X139077730Y-72551936D01*
X139053463Y-72581506D01*
X138994498Y-72691820D01*
X138958188Y-72811518D01*
X138945928Y-72936000D01*
X138949000Y-72950250D01*
X139107750Y-73109000D01*
X140432000Y-73109000D01*
X140432000Y-73089000D01*
X140686000Y-73089000D01*
X140686000Y-73109000D01*
X142010250Y-73109000D01*
X142169000Y-72950250D01*
X142172072Y-72936000D01*
X142159812Y-72811518D01*
X142123502Y-72691820D01*
X142064537Y-72581506D01*
X142040270Y-72551936D01*
X142112084Y-72417582D01*
X142156929Y-72269745D01*
X142172072Y-72116000D01*
X142172072Y-71816000D01*
X142156929Y-71662255D01*
X142112084Y-71514418D01*
X142042908Y-71385000D01*
X142383422Y-71385000D01*
X142865000Y-71866579D01*
X142865001Y-73633420D01*
X142304956Y-74193466D01*
X142271183Y-74221183D01*
X142170836Y-74343455D01*
X142156929Y-74202255D01*
X142112084Y-74054418D01*
X142040270Y-73920064D01*
X142064537Y-73890494D01*
X142123502Y-73780180D01*
X142159812Y-73660482D01*
X142172072Y-73536000D01*
X142169000Y-73521750D01*
X142010250Y-73363000D01*
X140686000Y-73363000D01*
X140686000Y-73383000D01*
X140432000Y-73383000D01*
X140432000Y-73363000D01*
X139107750Y-73363000D01*
X138949000Y-73521750D01*
X138945928Y-73536000D01*
X138958188Y-73660482D01*
X138994498Y-73780180D01*
X139039836Y-73865000D01*
X138337277Y-73865000D01*
X138303768Y-73837500D01*
X138356623Y-73794123D01*
X138465512Y-73661442D01*
X138546423Y-73510067D01*
X138596248Y-73345816D01*
X138613072Y-73175000D01*
X138613072Y-72675000D01*
X138596248Y-72504184D01*
X138546423Y-72339933D01*
X138465512Y-72188558D01*
X138385000Y-72090454D01*
X138385000Y-71385000D01*
X139075092Y-71385000D01*
X139005916Y-71514418D01*
G37*
%TD.AperFunction*%
%TD*%
M02*
