%!PS-Adobe-3.0
%%Creator: PCBNEW
%%CreationDate: Sat Nov 28 09:26:36 2020
%%Title: /var/home/jeff/inGit/Dual_VR_Conditioner/Dual_VR_Conditioner-NPTH-drl_map.ps
%%Pages: 1
%%PageOrder: Ascend
%%BoundingBox: 0 0 596 842
%%DocumentMedia: A4 595 842 0 () ()
%%Orientation: Landscape
%%EndComments
%%BeginProlog
/line { newpath moveto lineto stroke } bind def
/cir0 { newpath 0 360 arc stroke } bind def
/cir1 { newpath 0 360 arc gsave fill grestore stroke } bind def
/cir2 { newpath 0 360 arc gsave fill grestore stroke } bind def
/arc0 { newpath arc stroke } bind def
/arc1 { newpath 4 index 4 index moveto arc closepath gsave fill
    grestore stroke } bind def
/arc2 { newpath 4 index 4 index moveto arc closepath gsave fill
    grestore stroke } bind def
/poly0 { stroke } bind def
/poly1 { closepath gsave fill grestore stroke } bind def
/poly2 { closepath gsave fill grestore stroke } bind def
/rect0 { rectstroke } bind def
/rect1 { rectfill } bind def
/rect2 { rectfill } bind def
/linemode0 { 0 setlinecap 0 setlinejoin 0 setlinewidth } bind def
/linemode1 { 1 setlinecap 1 setlinejoin } bind def
/dashedline { [200] 100 setdash } bind def
/solidline { [] 0 setdash } bind def
/phantomshow { moveto
    /KicadFont findfont 0.000001 scalefont setfont
    show } bind def
/textshow { gsave
    findfont exch scalefont setfont concat 1 scale 0 0 moveto show
    } bind def
/reencodefont {
  findfont dup length dict begin
  { 1 index /FID ne
    { def }
    { pop pop } ifelse
  } forall
  /Encoding ISOLatin1Encoding def
  currentdict
  end } bind def
/KicadFont /Helvetica reencodefont definefont pop
/KicadFont-Bold /Helvetica-Bold reencodefont definefont pop
/KicadFont-Oblique /Helvetica-Oblique reencodefont definefont pop
/KicadFont-BoldOblique /Helvetica-BoldOblique reencodefont definefont pop
%%EndProlog
%%Page: 1 1
%%BeginPageSetup
gsave
0.0072 0.0072 scale
linemode1
82680 0 translate 90 rotate
150 setlinewidth
%%EndPageSetup
0 0 0 setrgbcolor
59.0551 setlinewidth
newpath
70276 43112.2 moveto
70276 72639.8 lineto
stroke
0 0 0 setrgbcolor
newpath
46654 72639.8 moveto
46654 43112.2 lineto
stroke
0 0 0 setrgbcolor
newpath
70276 72639.8 moveto
46654 72639.8 lineto
stroke
0 0 0 setrgbcolor
newpath
46654 43112.2 moveto
70276 43112.2 lineto
stroke
78.7394 setlinewidth
118.11 setlinewidth
0 0 0 setrgbcolor
0 0 0 setrgbcolor
newpath
47752.1 41249.2 moveto
47752.1 42430.3 lineto
48033.3 42430.3 lineto
48202.1 42374 lineto
48314.5 42261.5 lineto
48370.8 42149.1 lineto
48427 41924.1 lineto
48427 41755.4 lineto
48370.8 41530.4 lineto
48314.5 41417.9 lineto
48202.1 41305.4 lineto
48033.3 41249.2 lineto
47752.1 41249.2 lineto
stroke
newpath
48933.2 41249.2 moveto
48933.2 42036.6 lineto
stroke
newpath
48933.2 41811.6 moveto
48989.5 41924.1 lineto
49045.7 41980.3 lineto
49158.2 42036.6 lineto
49270.7 42036.6 lineto
stroke
newpath
49664.4 41249.2 moveto
49664.4 42036.6 lineto
stroke
newpath
49664.4 42430.3 moveto
49608.1 42374 lineto
49664.4 42317.8 lineto
49720.6 42374 lineto
49664.4 42430.3 lineto
49664.4 42317.8 lineto
stroke
newpath
50395.5 41249.2 moveto
50283.1 41305.4 lineto
50226.8 41417.9 lineto
50226.8 42430.3 lineto
stroke
newpath
51014.2 41249.2 moveto
50901.7 41305.4 lineto
50845.5 41417.9 lineto
50845.5 42430.3 lineto
stroke
newpath
52364 41249.2 moveto
52364 42430.3 lineto
52757.7 41586.6 lineto
53151.4 42430.3 lineto
53151.4 41249.2 lineto
stroke
newpath
54220.1 41249.2 moveto
54220.1 41867.8 lineto
54163.8 41980.3 lineto
54051.3 42036.6 lineto
53826.4 42036.6 lineto
53713.9 41980.3 lineto
stroke
newpath
54220.1 41305.4 moveto
54107.6 41249.2 lineto
53826.4 41249.2 lineto
53713.9 41305.4 lineto
53657.6 41417.9 lineto
53657.6 41530.4 lineto
53713.9 41642.9 lineto
53826.4 41699.1 lineto
54107.6 41699.1 lineto
54220.1 41755.4 lineto
stroke
newpath
54782.5 42036.6 moveto
54782.5 40855.5 lineto
stroke
newpath
54782.5 41980.3 moveto
54895 42036.6 lineto
55119.9 42036.6 lineto
55232.4 41980.3 lineto
55288.7 41924.1 lineto
55344.9 41811.6 lineto
55344.9 41474.1 lineto
55288.7 41361.7 lineto
55232.4 41305.4 lineto
55119.9 41249.2 lineto
54895 41249.2 lineto
54782.5 41305.4 lineto
stroke
newpath
55851.1 41361.7 moveto
55907.4 41305.4 lineto
55851.1 41249.2 lineto
55794.9 41305.4 lineto
55851.1 41361.7 lineto
55851.1 41249.2 lineto
stroke
newpath
55851.1 41980.3 moveto
55907.4 41924.1 lineto
55851.1 41867.8 lineto
55794.9 41924.1 lineto
55851.1 41980.3 lineto
55851.1 41867.8 lineto
stroke
showpage
grestore
%%EOF
