EESchema Schematic File Version 4
EELAYER 30 0
EELAYER END
$Descr A4 11693 8268
encoding utf-8
Sheet 1 1
Title ""
Date ""
Rev ""
Comp ""
Comment1 ""
Comment2 ""
Comment3 ""
Comment4 ""
$EndDescr
$Comp
L Connector_Generic:Conn_02x07_Counter_Clockwise J5
U 1 1 5FF10519
P 7500 2500
F 0 "J5" V 7596 2112 50  0001 R CNN
F 1 "LM1815" V 7550 2600 50  0000 R CNN
F 2 "Package_SO:SOIC-14_3.9x8.7mm_P1.27mm" H 7500 2500 50  0001 C CNN
F 3 "~" H 7500 2500 50  0001 C CNN
	1    7500 2500
	1    0    0    -1  
$EndComp
Wire Wire Line
	4700 2300 4600 2300
Wire Wire Line
	4600 2300 4600 2200
Wire Wire Line
	4600 1700 5200 1700
Wire Wire Line
	5300 1700 5300 2300
Wire Wire Line
	5300 2700 5200 2700
Wire Wire Line
	5200 2500 5300 2500
Connection ~ 5300 2500
Wire Wire Line
	5300 2500 5300 2700
Text Label 4950 1700 0    50   ~ 0
GND
$Comp
L Connector_Generic:Conn_02x07_Counter_Clockwise J1
U 1 1 5FC04942
P 4900 2500
F 0 "J1" V 4996 2112 50  0001 R CNN
F 1 "LM1815" V 4950 2600 50  0000 R CNN
F 2 "Package_SO:SOIC-14_3.9x8.7mm_P1.27mm" H 4900 2500 50  0001 C CNN
F 3 "~" H 4900 2500 50  0001 C CNN
	1    4900 2500
	1    0    0    -1  
$EndComp
$Comp
L Device:C C4
U 1 1 5FFB9401
P 5400 1950
F 0 "C4" H 5400 1850 50  0000 C CNN
F 1 "C" V 5400 1950 50  0000 C CNN
F 2 "Capacitor_SMD:C_0603_1608Metric_Pad1.08x0.95mm_HandSolder" H 5438 1800 50  0001 C CNN
F 3 "~" H 5400 1950 50  0001 C CNN
	1    5400 1950
	-1   0    0    1   
$EndComp
Wire Wire Line
	5300 1700 5400 1700
Wire Wire Line
	5400 1700 5400 1800
Connection ~ 5300 1700
Wire Wire Line
	5200 2800 5400 2800
Wire Wire Line
	5400 2800 5400 2100
$Comp
L Device:C C5
U 1 1 5FFC0125
P 5600 1950
F 0 "C5" H 5600 1850 50  0000 C CNN
F 1 "C" V 5600 1950 50  0000 C CNN
F 2 "Capacitor_SMD:C_0603_1608Metric_Pad1.08x0.95mm_HandSolder" H 5638 1800 50  0001 C CNN
F 3 "~" H 5600 1950 50  0001 C CNN
	1    5600 1950
	-1   0    0    1   
$EndComp
Wire Wire Line
	5200 2200 5600 2200
Wire Wire Line
	5600 2200 5600 2100
Wire Wire Line
	5600 1800 5600 1700
Wire Wire Line
	5600 1700 5400 1700
Connection ~ 5400 1700
$Comp
L Device:R R4
U 1 1 5FFC5D24
P 5600 3050
F 0 "R4" H 5600 2900 50  0000 C CNN
F 1 "R" V 5600 3050 50  0000 C CNN
F 2 "Resistor_SMD:R_0603_1608Metric_Pad0.98x0.95mm_HandSolder" V 5530 3050 50  0001 C CNN
F 3 "~" H 5600 3050 50  0001 C CNN
	1    5600 3050
	-1   0    0    1   
$EndComp
Wire Wire Line
	5600 2200 5600 2900
Connection ~ 5600 2200
$Comp
L Device:R R5
U 1 1 5FFCB81E
P 5800 3050
F 0 "R5" H 5800 2900 50  0000 C CNN
F 1 "R" V 5800 3050 50  0000 C CNN
F 2 "Resistor_SMD:R_0603_1608Metric_Pad0.98x0.95mm_HandSolder" V 5730 3050 50  0001 C CNN
F 3 "~" H 5800 3050 50  0001 C CNN
	1    5800 3050
	-1   0    0    1   
$EndComp
Wire Wire Line
	5200 2400 5800 2400
Wire Wire Line
	5800 2400 5800 2900
Wire Wire Line
	5600 3200 5600 3300
Wire Wire Line
	5600 3300 5800 3300
Wire Wire Line
	5800 3300 5800 3200
Wire Wire Line
	5600 3300 5400 3300
Wire Wire Line
	5400 3300 5400 2800
Connection ~ 5600 3300
Connection ~ 5400 2800
$Comp
L Device:C C3
U 1 1 5FFD6A35
P 4500 1950
F 0 "C3" H 4500 1850 50  0000 C CNN
F 1 "C" V 4500 1950 50  0000 C CNN
F 2 "Capacitor_SMD:C_0603_1608Metric_Pad1.08x0.95mm_HandSolder" H 4538 1800 50  0001 C CNN
F 3 "~" H 4500 1950 50  0001 C CNN
	1    4500 1950
	-1   0    0    1   
$EndComp
Wire Wire Line
	4600 1700 4500 1700
Wire Wire Line
	4500 1700 4500 1800
Connection ~ 4600 1700
Wire Wire Line
	4500 2100 4500 2400
Wire Wire Line
	4500 2400 4700 2400
$Comp
L Device:R R3
U 1 1 5FFDE4E2
P 4350 2150
F 0 "R3" H 4300 2300 50  0000 L CNN
F 1 "R" V 4350 2150 50  0000 L CNN
F 2 "Resistor_SMD:R_0603_1608Metric_Pad0.98x0.95mm_HandSolder" V 4280 2150 50  0001 C CNN
F 3 "~" H 4350 2150 50  0001 C CNN
	1    4350 2150
	1    0    0    -1  
$EndComp
Wire Wire Line
	4500 2400 4350 2400
Wire Wire Line
	4350 2400 4350 2300
Connection ~ 4500 2400
$Comp
L Device:R R2
U 1 1 5FFF1CDC
P 4150 1950
F 0 "R2" H 4100 2100 50  0000 L CNN
F 1 "R" V 4150 1950 50  0000 L CNN
F 2 "Resistor_SMD:R_0603_1608Metric_Pad0.98x0.95mm_HandSolder" V 4080 1950 50  0001 C CNN
F 3 "~" H 4150 1950 50  0001 C CNN
	1    4150 1950
	1    0    0    -1  
$EndComp
Wire Wire Line
	4500 1700 4150 1700
Wire Wire Line
	4150 1700 4150 1800
Connection ~ 4500 1700
Wire Wire Line
	4150 2100 4150 2200
Wire Wire Line
	4150 2200 4250 2200
Wire Wire Line
	4250 2200 4250 1900
Wire Wire Line
	4250 1900 4350 1900
Wire Wire Line
	4350 1900 4350 2000
$Comp
L Device:C C2
U 1 1 5FFFAF20
P 4000 1950
F 0 "C2" H 4000 1850 50  0000 C CNN
F 1 "C" V 4000 1950 50  0000 C CNN
F 2 "Capacitor_SMD:C_0603_1608Metric_Pad1.08x0.95mm_HandSolder" H 4038 1800 50  0001 C CNN
F 3 "~" H 4000 1950 50  0001 C CNN
	1    4000 1950
	-1   0    0    1   
$EndComp
Wire Wire Line
	4150 1700 4000 1700
Wire Wire Line
	4000 1700 4000 1800
Connection ~ 4150 1700
Wire Wire Line
	4000 2100 4000 2200
Wire Wire Line
	4000 2200 4150 2200
Connection ~ 4150 2200
$Comp
L Device:R R1
U 1 1 600039EC
P 3850 1950
F 0 "R1" H 3800 2100 50  0000 L CNN
F 1 "R" V 3850 1950 50  0000 L CNN
F 2 "Resistor_SMD:R_0603_1608Metric_Pad0.98x0.95mm_HandSolder" V 3780 1950 50  0001 C CNN
F 3 "~" H 3850 1950 50  0001 C CNN
	1    3850 1950
	1    0    0    -1  
$EndComp
$Comp
L Device:C C1
U 1 1 60004659
P 3700 1950
F 0 "C1" H 3700 1850 50  0000 C CNN
F 1 "C" V 3700 1950 50  0000 C CNN
F 2 "Capacitor_SMD:C_0603_1608Metric_Pad1.08x0.95mm_HandSolder" H 3738 1800 50  0001 C CNN
F 3 "~" H 3700 1950 50  0001 C CNN
	1    3700 1950
	-1   0    0    1   
$EndComp
Wire Wire Line
	4700 2800 3850 2800
Wire Wire Line
	3700 2800 3700 2100
Wire Wire Line
	3850 2100 3850 2800
Connection ~ 3850 2800
Wire Wire Line
	3850 2800 3700 2800
Wire Wire Line
	3700 1800 3700 1700
Wire Wire Line
	3700 1700 3850 1700
Connection ~ 4000 1700
Wire Wire Line
	3850 1800 3850 1700
Connection ~ 3850 1700
Wire Wire Line
	3850 1700 4000 1700
Wire Wire Line
	7300 2300 7200 2300
Wire Wire Line
	7200 2300 7200 2200
Wire Wire Line
	7200 1700 7900 1700
$Comp
L Device:C C8
U 1 1 600336CF
P 7100 1950
F 0 "C8" H 7100 1850 50  0000 C CNN
F 1 "C" V 7100 1950 50  0000 C CNN
F 2 "Capacitor_SMD:C_0603_1608Metric_Pad1.08x0.95mm_HandSolder" H 7138 1800 50  0001 C CNN
F 3 "~" H 7100 1950 50  0001 C CNN
	1    7100 1950
	-1   0    0    1   
$EndComp
Wire Wire Line
	7200 1700 7100 1700
Wire Wire Line
	7100 1700 7100 1800
Connection ~ 7200 1700
Wire Wire Line
	7100 2100 7100 2400
Wire Wire Line
	7100 2400 7300 2400
$Comp
L Device:R R8
U 1 1 600336DA
P 6950 2150
F 0 "R8" H 6900 2300 50  0000 L CNN
F 1 "R" V 6950 2150 50  0000 L CNN
F 2 "Resistor_SMD:R_0603_1608Metric_Pad0.98x0.95mm_HandSolder" V 6880 2150 50  0001 C CNN
F 3 "~" H 6950 2150 50  0001 C CNN
	1    6950 2150
	1    0    0    -1  
$EndComp
Wire Wire Line
	7100 2400 6950 2400
Wire Wire Line
	6950 2400 6950 2300
Connection ~ 7100 2400
$Comp
L Device:R R7
U 1 1 600336E3
P 6750 1950
F 0 "R7" H 6700 2100 50  0000 L CNN
F 1 "R" V 6750 1950 50  0000 L CNN
F 2 "Resistor_SMD:R_0603_1608Metric_Pad0.98x0.95mm_HandSolder" V 6680 1950 50  0001 C CNN
F 3 "~" H 6750 1950 50  0001 C CNN
	1    6750 1950
	1    0    0    -1  
$EndComp
Wire Wire Line
	7100 1700 6750 1700
Wire Wire Line
	6750 1700 6750 1800
Connection ~ 7100 1700
Wire Wire Line
	6750 2100 6750 2200
Wire Wire Line
	6750 2200 6850 2200
Wire Wire Line
	6850 2200 6850 1900
Wire Wire Line
	6850 1900 6950 1900
Wire Wire Line
	6950 1900 6950 2000
$Comp
L Device:C C7
U 1 1 600336F1
P 6600 1950
F 0 "C7" H 6600 1850 50  0000 C CNN
F 1 "C" V 6600 1950 50  0000 C CNN
F 2 "Capacitor_SMD:C_0603_1608Metric_Pad1.08x0.95mm_HandSolder" H 6638 1800 50  0001 C CNN
F 3 "~" H 6600 1950 50  0001 C CNN
	1    6600 1950
	-1   0    0    1   
$EndComp
Wire Wire Line
	6750 1700 6600 1700
Wire Wire Line
	6600 1700 6600 1800
Connection ~ 6750 1700
Wire Wire Line
	6600 2100 6600 2200
Wire Wire Line
	6600 2200 6750 2200
Connection ~ 6750 2200
$Comp
L Device:R R6
U 1 1 600336FD
P 6450 1950
F 0 "R6" H 6400 2100 50  0000 L CNN
F 1 "R" V 6450 1950 50  0000 L CNN
F 2 "Resistor_SMD:R_0603_1608Metric_Pad0.98x0.95mm_HandSolder" V 6380 1950 50  0001 C CNN
F 3 "~" H 6450 1950 50  0001 C CNN
	1    6450 1950
	1    0    0    -1  
$EndComp
$Comp
L Device:C C6
U 1 1 60033703
P 6300 1950
F 0 "C6" H 6300 1850 50  0000 C CNN
F 1 "C" V 6300 1950 50  0000 C CNN
F 2 "Capacitor_SMD:C_0603_1608Metric_Pad1.08x0.95mm_HandSolder" H 6338 1800 50  0001 C CNN
F 3 "~" H 6300 1950 50  0001 C CNN
	1    6300 1950
	-1   0    0    1   
$EndComp
Wire Wire Line
	7300 2800 6450 2800
Wire Wire Line
	6300 2800 6300 2100
Wire Wire Line
	6450 2100 6450 2800
Connection ~ 6450 2800
Wire Wire Line
	6450 2800 6300 2800
Wire Wire Line
	6300 1800 6300 1700
Wire Wire Line
	6300 1700 6450 1700
Connection ~ 6600 1700
Wire Wire Line
	6450 1800 6450 1700
Connection ~ 6450 1700
Wire Wire Line
	6450 1700 6600 1700
Wire Wire Line
	7900 1700 7900 2300
Wire Wire Line
	7900 2700 7800 2700
Wire Wire Line
	7800 2500 7900 2500
Connection ~ 7900 2500
Wire Wire Line
	7900 2500 7900 2700
$Comp
L Device:C C9
U 1 1 60065A96
P 8000 1950
F 0 "C9" H 8000 1850 50  0000 C CNN
F 1 "C" V 8000 1950 50  0000 C CNN
F 2 "Capacitor_SMD:C_0603_1608Metric_Pad1.08x0.95mm_HandSolder" H 8038 1800 50  0001 C CNN
F 3 "~" H 8000 1950 50  0001 C CNN
	1    8000 1950
	-1   0    0    1   
$EndComp
Wire Wire Line
	7900 1700 8000 1700
Wire Wire Line
	8000 1700 8000 1800
Wire Wire Line
	7800 2800 8000 2800
Wire Wire Line
	8000 2800 8000 2100
$Comp
L Device:C C10
U 1 1 60065AA1
P 8200 1950
F 0 "C10" H 8200 1850 50  0000 C CNN
F 1 "C" V 8200 1950 50  0000 C CNN
F 2 "Capacitor_SMD:C_0603_1608Metric_Pad1.08x0.95mm_HandSolder" H 8238 1800 50  0001 C CNN
F 3 "~" H 8200 1950 50  0001 C CNN
	1    8200 1950
	-1   0    0    1   
$EndComp
Wire Wire Line
	7800 2200 8200 2200
Wire Wire Line
	8200 2200 8200 2100
Wire Wire Line
	8200 1800 8200 1700
Wire Wire Line
	8200 1700 8000 1700
Connection ~ 8000 1700
$Comp
L Device:R R9
U 1 1 60065AAC
P 8200 3050
F 0 "R9" H 8200 2900 50  0000 C CNN
F 1 "R" V 8200 3050 50  0000 C CNN
F 2 "Resistor_SMD:R_0603_1608Metric_Pad0.98x0.95mm_HandSolder" V 8130 3050 50  0001 C CNN
F 3 "~" H 8200 3050 50  0001 C CNN
	1    8200 3050
	-1   0    0    1   
$EndComp
Wire Wire Line
	8200 2200 8200 2900
Connection ~ 8200 2200
$Comp
L Device:R R10
U 1 1 60065AB4
P 8400 3050
F 0 "R10" H 8400 2900 50  0000 C CNN
F 1 "R" V 8400 3050 50  0000 C CNN
F 2 "Resistor_SMD:R_0603_1608Metric_Pad0.98x0.95mm_HandSolder" V 8330 3050 50  0001 C CNN
F 3 "~" H 8400 3050 50  0001 C CNN
	1    8400 3050
	-1   0    0    1   
$EndComp
Wire Wire Line
	7800 2400 8400 2400
Wire Wire Line
	8400 2400 8400 2900
Wire Wire Line
	8200 3200 8200 3300
Wire Wire Line
	8200 3300 8400 3300
Wire Wire Line
	8400 3300 8400 3200
Wire Wire Line
	8000 3300 8000 2800
Connection ~ 8200 3300
Connection ~ 8000 2800
Connection ~ 7900 1700
Connection ~ 8000 3300
Wire Wire Line
	8000 3300 8200 3300
Connection ~ 6300 1700
$Comp
L Connector_Generic:Conn_01x03 J2
U 1 1 6009DDC3
P 3350 2600
F 0 "J2" H 3268 2275 50  0000 C CNN
F 1 "mode sel" H 3268 2366 50  0000 C CNN
F 2 "Jumper:SolderJumper-3_P1.3mm_Open_Pad1.0x1.5mm" H 3350 2600 50  0001 C CNN
F 3 "~" H 3350 2600 50  0001 C CNN
	1    3350 2600
	-1   0    0    1   
$EndComp
Wire Wire Line
	3550 2600 4700 2600
Wire Wire Line
	5400 3300 3550 3300
Wire Wire Line
	3550 3300 3550 2700
Connection ~ 5400 3300
Wire Wire Line
	3550 2500 3550 1700
Wire Wire Line
	3550 1700 3700 1700
Connection ~ 3700 1700
$Comp
L Connector_Generic:Conn_01x03 J4
U 1 1 600E70C9
P 5950 2600
F 0 "J4" H 5868 2275 50  0000 C CNN
F 1 "mode sel" H 5868 2366 50  0000 C CNN
F 2 "Jumper:SolderJumper-3_P1.3mm_Open_Pad1.0x1.5mm" H 5950 2600 50  0001 C CNN
F 3 "~" H 5950 2600 50  0001 C CNN
	1    5950 2600
	-1   0    0    1   
$EndComp
Wire Wire Line
	6150 2600 7300 2600
Wire Wire Line
	6150 2500 6150 1700
Connection ~ 6150 1700
Wire Wire Line
	6150 1700 6300 1700
Wire Wire Line
	6150 2700 6200 2700
Wire Wire Line
	6200 2700 6200 3300
Connection ~ 6200 3300
Wire Wire Line
	6200 3300 8000 3300
Wire Wire Line
	5600 1700 6150 1700
Connection ~ 5600 1700
Wire Wire Line
	5800 3300 6200 3300
Connection ~ 5800 3300
Text Label 5000 3300 0    50   ~ 0
5V
$Comp
L Connector_Generic:Conn_02x04_Counter_Clockwise J3
U 1 1 601459EE
P 5850 950
F 0 "J3" H 5900 1267 50  0000 C CNN
F 1 "Conn_02x04_Counter_Clockwise" H 5900 1176 50  0000 C CNN
F 2 "Package_DIP:DIP-8_W7.62mm_Socket" H 5850 950 50  0001 C CNN
F 3 "~" H 5850 950 50  0001 C CNN
	1    5850 950 
	1    0    0    -1  
$EndComp
Wire Wire Line
	4350 1900 4350 950 
Wire Wire Line
	4350 950  5650 950 
Connection ~ 4350 1900
Wire Wire Line
	6150 1050 8200 1050
Wire Wire Line
	8200 1050 8200 1700
Connection ~ 8200 1700
Wire Wire Line
	6150 1150 8500 1150
Wire Wire Line
	8500 1150 8500 3300
Wire Wire Line
	8500 3300 8400 3300
Connection ~ 8400 3300
Wire Wire Line
	5650 850  3550 850 
Wire Wire Line
	3550 850  3550 1700
Connection ~ 3550 1700
Wire Wire Line
	5650 1150 5200 1150
Wire Wire Line
	5200 1150 5200 1700
Connection ~ 5200 1700
Wire Wire Line
	5200 1700 5300 1700
Wire Wire Line
	6950 1900 6950 1300
Wire Wire Line
	6950 1300 5550 1300
Wire Wire Line
	5550 1300 5550 1050
Wire Wire Line
	5550 1050 5650 1050
Connection ~ 6950 1900
Wire Wire Line
	5800 2400 5800 1400
Wire Wire Line
	5800 1400 6250 1400
Wire Wire Line
	6250 1400 6250 850 
Wire Wire Line
	6250 850  6150 850 
Connection ~ 5800 2400
Wire Wire Line
	6150 950  8400 950 
Wire Wire Line
	8400 950  8400 2400
Connection ~ 8400 2400
Wire Wire Line
	4700 2200 4600 2200
Connection ~ 4600 2200
Wire Wire Line
	4600 2200 4600 1700
Wire Wire Line
	4700 2500 4600 2500
Wire Wire Line
	4600 2500 4600 2300
Connection ~ 4600 2300
Wire Wire Line
	4700 2700 4600 2700
Wire Wire Line
	4600 2700 4600 2500
Connection ~ 4600 2500
Wire Wire Line
	5200 2300 5300 2300
Connection ~ 5300 2300
Wire Wire Line
	5300 2300 5300 2500
Wire Wire Line
	7300 2200 7200 2200
Connection ~ 7200 2200
Wire Wire Line
	7200 2200 7200 1700
Wire Wire Line
	7300 2500 7200 2500
Wire Wire Line
	7200 2500 7200 2300
Connection ~ 7200 2300
Wire Wire Line
	7300 2700 7200 2700
Wire Wire Line
	7200 2700 7200 2500
Connection ~ 7200 2500
Wire Wire Line
	7800 2300 7900 2300
Connection ~ 7900 2300
Wire Wire Line
	7900 2300 7900 2500
$EndSCHEMATC
