%!PS-Adobe-3.0
%%Creator: PCBNEW
%%CreationDate: Sat Nov 28 09:26:36 2020
%%Title: /var/home/jeff/inGit/Dual_VR_Conditioner/Dual_VR_Conditioner-PTH-drl_map.ps
%%Pages: 1
%%PageOrder: Ascend
%%BoundingBox: 0 0 596 842
%%DocumentMedia: A4 595 842 0 () ()
%%Orientation: Landscape
%%EndComments
%%BeginProlog
/line { newpath moveto lineto stroke } bind def
/cir0 { newpath 0 360 arc stroke } bind def
/cir1 { newpath 0 360 arc gsave fill grestore stroke } bind def
/cir2 { newpath 0 360 arc gsave fill grestore stroke } bind def
/arc0 { newpath arc stroke } bind def
/arc1 { newpath 4 index 4 index moveto arc closepath gsave fill
    grestore stroke } bind def
/arc2 { newpath 4 index 4 index moveto arc closepath gsave fill
    grestore stroke } bind def
/poly0 { stroke } bind def
/poly1 { closepath gsave fill grestore stroke } bind def
/poly2 { closepath gsave fill grestore stroke } bind def
/rect0 { rectstroke } bind def
/rect1 { rectfill } bind def
/rect2 { rectfill } bind def
/linemode0 { 0 setlinecap 0 setlinejoin 0 setlinewidth } bind def
/linemode1 { 1 setlinecap 1 setlinejoin } bind def
/dashedline { [200] 100 setdash } bind def
/solidline { [] 0 setdash } bind def
/phantomshow { moveto
    /KicadFont findfont 0.000001 scalefont setfont
    show } bind def
/textshow { gsave
    findfont exch scalefont setfont concat 1 scale 0 0 moveto show
    } bind def
/reencodefont {
  findfont dup length dict begin
  { 1 index /FID ne
    { def }
    { pop pop } ifelse
  } forall
  /Encoding ISOLatin1Encoding def
  currentdict
  end } bind def
/KicadFont /Helvetica reencodefont definefont pop
/KicadFont-Bold /Helvetica-Bold reencodefont definefont pop
/KicadFont-Oblique /Helvetica-Oblique reencodefont definefont pop
/KicadFont-BoldOblique /Helvetica-BoldOblique reencodefont definefont pop
%%EndProlog
%%Page: 1 1
%%BeginPageSetup
gsave
0.0072 0.0072 scale
linemode1
82680 0 translate 90 rotate
150 setlinewidth
%%EndPageSetup
0 0 0 setrgbcolor
59.0551 setlinewidth
newpath
70276 43112.2 moveto
70276 72639.8 lineto
stroke
0 0 0 setrgbcolor
newpath
46654 72639.8 moveto
46654 43112.2 lineto
stroke
0 0 0 setrgbcolor
newpath
70276 72639.8 moveto
46654 72639.8 lineto
stroke
0 0 0 setrgbcolor
newpath
46654 43112.2 moveto
70276 43112.2 lineto
stroke
78.7394 setlinewidth
newpath
51732.7 51616.2 moveto
52205.2 51143.7 lineto
stroke
newpath
52205.2 51616.2 moveto
51732.7 51143.7 lineto
stroke
newpath
52087 58466.6 moveto
52559.5 57994.1 lineto
stroke
newpath
52559.5 58466.6 moveto
52087 57994.1 lineto
stroke
newpath
53622.5 54332.7 moveto
54094.9 53860.3 lineto
stroke
newpath
54094.9 54332.7 moveto
53622.5 53860.3 lineto
stroke
newpath
57638.2 68446.9 moveto
58110.7 67974.4 lineto
stroke
newpath
58110.7 68446.9 moveto
57638.2 67974.4 lineto
stroke
newpath
66201.2 63722.5 moveto
66673.7 63250 lineto
stroke
newpath
66673.7 63722.5 moveto
66201.2 63250 lineto
stroke
56435.9 55355.5 472.441 cir0
56435.9 52355.5 472.441 cir0
56435.9 49355.5 472.441 cir0
56435.9 46355.5 472.441 cir0
65435.9 55355.5 472.441 cir0
65435.9 52355.5 472.441 cir0
65435.9 49355.5 472.441 cir0
65435.9 46355.5 472.441 cir0
118.11 setlinewidth
0 0 0 setrgbcolor
0 0 0 setrgbcolor
newpath
47752.1 41249.2 moveto
47752.1 42430.3 lineto
48033.3 42430.3 lineto
48202.1 42374 lineto
48314.5 42261.5 lineto
48370.8 42149.1 lineto
48427 41924.1 lineto
48427 41755.4 lineto
48370.8 41530.4 lineto
48314.5 41417.9 lineto
48202.1 41305.4 lineto
48033.3 41249.2 lineto
47752.1 41249.2 lineto
stroke
newpath
48933.2 41249.2 moveto
48933.2 42036.6 lineto
stroke
newpath
48933.2 41811.6 moveto
48989.5 41924.1 lineto
49045.7 41980.3 lineto
49158.2 42036.6 lineto
49270.7 42036.6 lineto
stroke
newpath
49664.4 41249.2 moveto
49664.4 42036.6 lineto
stroke
newpath
49664.4 42430.3 moveto
49608.1 42374 lineto
49664.4 42317.8 lineto
49720.6 42374 lineto
49664.4 42430.3 lineto
49664.4 42317.8 lineto
stroke
newpath
50395.5 41249.2 moveto
50283.1 41305.4 lineto
50226.8 41417.9 lineto
50226.8 42430.3 lineto
stroke
newpath
51014.2 41249.2 moveto
50901.7 41305.4 lineto
50845.5 41417.9 lineto
50845.5 42430.3 lineto
stroke
newpath
52364 41249.2 moveto
52364 42430.3 lineto
52757.7 41586.6 lineto
53151.4 42430.3 lineto
53151.4 41249.2 lineto
stroke
newpath
54220.1 41249.2 moveto
54220.1 41867.8 lineto
54163.8 41980.3 lineto
54051.3 42036.6 lineto
53826.4 42036.6 lineto
53713.9 41980.3 lineto
stroke
newpath
54220.1 41305.4 moveto
54107.6 41249.2 lineto
53826.4 41249.2 lineto
53713.9 41305.4 lineto
53657.6 41417.9 lineto
53657.6 41530.4 lineto
53713.9 41642.9 lineto
53826.4 41699.1 lineto
54107.6 41699.1 lineto
54220.1 41755.4 lineto
stroke
newpath
54782.5 42036.6 moveto
54782.5 40855.5 lineto
stroke
newpath
54782.5 41980.3 moveto
54895 42036.6 lineto
55119.9 42036.6 lineto
55232.4 41980.3 lineto
55288.7 41924.1 lineto
55344.9 41811.6 lineto
55344.9 41474.1 lineto
55288.7 41361.7 lineto
55232.4 41305.4 lineto
55119.9 41249.2 lineto
54895 41249.2 lineto
54782.5 41305.4 lineto
stroke
newpath
55851.1 41361.7 moveto
55907.4 41305.4 lineto
55851.1 41249.2 lineto
55794.9 41305.4 lineto
55851.1 41361.7 lineto
55851.1 41249.2 lineto
stroke
newpath
55851.1 41980.3 moveto
55907.4 41924.1 lineto
55851.1 41867.8 lineto
55794.9 41924.1 lineto
55851.1 41980.3 lineto
55851.1 41867.8 lineto
stroke
newpath
46152 39539.4 moveto
46624.4 39066.9 lineto
stroke
newpath
46624.4 39539.4 moveto
46152 39066.9 lineto
stroke
0 0 0 setrgbcolor
0 0 0 setrgbcolor
newpath
47977.1 39950 moveto
48089.6 39950 lineto
48202.1 39893.7 lineto
48258.3 39837.5 lineto
48314.5 39725 lineto
48370.8 39500 lineto
48370.8 39218.8 lineto
48314.5 38993.8 lineto
48258.3 38881.3 lineto
48202.1 38825.1 lineto
48089.6 38768.9 lineto
47977.1 38768.9 lineto
47864.6 38825.1 lineto
47808.4 38881.3 lineto
47752.1 38993.8 lineto
47695.9 39218.8 lineto
47695.9 39500 lineto
47752.1 39725 lineto
47808.4 39837.5 lineto
47864.6 39893.7 lineto
47977.1 39950 lineto
stroke
newpath
48877 38881.3 moveto
48933.2 38825.1 lineto
48877 38768.9 lineto
48820.7 38825.1 lineto
48877 38881.3 lineto
48877 38768.9 lineto
stroke
newpath
49945.6 39556.3 moveto
49945.6 38768.9 lineto
stroke
newpath
49664.4 40006.2 moveto
49383.2 39162.6 lineto
50114.3 39162.6 lineto
stroke
newpath
50789.2 39950 moveto
50901.7 39950 lineto
51014.2 39893.7 lineto
51070.5 39837.5 lineto
51126.7 39725 lineto
51182.9 39500 lineto
51182.9 39218.8 lineto
51126.7 38993.8 lineto
51070.5 38881.3 lineto
51014.2 38825.1 lineto
50901.7 38768.9 lineto
50789.2 38768.9 lineto
50676.8 38825.1 lineto
50620.5 38881.3 lineto
50564.3 38993.8 lineto
50508 39218.8 lineto
50508 39500 lineto
50564.3 39725 lineto
50620.5 39837.5 lineto
50676.8 39893.7 lineto
50789.2 39950 lineto
stroke
newpath
51689.1 38768.9 moveto
51689.1 39556.3 lineto
stroke
newpath
51689.1 39443.8 moveto
51745.4 39500 lineto
51857.9 39556.3 lineto
52026.6 39556.3 lineto
52139.1 39500 lineto
52195.3 39387.5 lineto
52195.3 38768.9 lineto
stroke
newpath
52195.3 39387.5 moveto
52251.6 39500 lineto
52364 39556.3 lineto
52532.8 39556.3 lineto
52645.3 39500 lineto
52701.5 39387.5 lineto
52701.5 38768.9 lineto
stroke
newpath
53263.9 38768.9 moveto
53263.9 39556.3 lineto
stroke
newpath
53263.9 39443.8 moveto
53320.2 39500 lineto
53432.7 39556.3 lineto
53601.4 39556.3 lineto
53713.9 39500 lineto
53770.1 39387.5 lineto
53770.1 38768.9 lineto
stroke
newpath
53770.1 39387.5 moveto
53826.4 39500 lineto
53938.8 39556.3 lineto
54107.6 39556.3 lineto
54220.1 39500 lineto
54276.3 39387.5 lineto
54276.3 38768.9 lineto
stroke
newpath
56582.3 40006.2 moveto
55569.9 38487.6 lineto
stroke
newpath
58100.8 39950 moveto
58213.3 39950 lineto
58325.8 39893.7 lineto
58382 39837.5 lineto
58438.3 39725 lineto
58494.5 39500 lineto
58494.5 39218.8 lineto
58438.3 38993.8 lineto
58382 38881.3 lineto
58325.8 38825.1 lineto
58213.3 38768.9 lineto
58100.8 38768.9 lineto
57988.3 38825.1 lineto
57932.1 38881.3 lineto
57875.9 38993.8 lineto
57819.6 39218.8 lineto
57819.6 39500 lineto
57875.9 39725 lineto
57932.1 39837.5 lineto
57988.3 39893.7 lineto
58100.8 39950 lineto
stroke
newpath
59000.7 38881.3 moveto
59057 38825.1 lineto
59000.7 38768.9 lineto
58944.5 38825.1 lineto
59000.7 38881.3 lineto
59000.7 38768.9 lineto
stroke
newpath
59788.1 39950 moveto
59900.6 39950 lineto
60013.1 39893.7 lineto
60069.3 39837.5 lineto
60125.6 39725 lineto
60181.8 39500 lineto
60181.8 39218.8 lineto
60125.6 38993.8 lineto
60069.3 38881.3 lineto
60013.1 38825.1 lineto
59900.6 38768.9 lineto
59788.1 38768.9 lineto
59675.6 38825.1 lineto
59619.4 38881.3 lineto
59563.1 38993.8 lineto
59506.9 39218.8 lineto
59506.9 39500 lineto
59563.1 39725 lineto
59619.4 39837.5 lineto
59675.6 39893.7 lineto
59788.1 39950 lineto
stroke
newpath
61306.7 38768.9 moveto
60631.8 38768.9 lineto
stroke
newpath
60969.2 38768.9 moveto
60969.2 39950 lineto
60856.7 39781.2 lineto
60744.2 39668.7 lineto
60631.8 39612.5 lineto
stroke
newpath
62319 39950 moveto
62094.1 39950 lineto
61981.6 39893.7 lineto
61925.3 39837.5 lineto
61812.9 39668.7 lineto
61756.6 39443.8 lineto
61756.6 38993.8 lineto
61812.9 38881.3 lineto
61869.1 38825.1 lineto
61981.6 38768.9 lineto
62206.6 38768.9 lineto
62319 38825.1 lineto
62375.3 38881.3 lineto
62431.5 38993.8 lineto
62431.5 39275 lineto
62375.3 39387.5 lineto
62319 39443.8 lineto
62206.6 39500 lineto
61981.6 39500 lineto
61869.1 39443.8 lineto
61812.9 39387.5 lineto
61756.6 39275 lineto
stroke
newpath
62881.5 39950 moveto
62881.5 39725 lineto
stroke
newpath
63331.4 39950 moveto
63331.4 39725 lineto
stroke
newpath
65075 38318.9 moveto
65018.7 38375.2 lineto
64906.2 38543.9 lineto
64850 38656.4 lineto
64793.7 38825.1 lineto
64737.5 39106.3 lineto
64737.5 39331.3 lineto
64793.7 39612.5 lineto
64850 39781.2 lineto
64906.2 39893.7 lineto
65018.7 40062.4 lineto
65075 40118.7 lineto
stroke
newpath
66087.3 39950 moveto
65524.9 39950 lineto
65468.7 39387.5 lineto
65524.9 39443.8 lineto
65637.4 39500 lineto
65918.6 39500 lineto
66031.1 39443.8 lineto
66087.3 39387.5 lineto
66143.6 39275 lineto
66143.6 38993.8 lineto
66087.3 38881.3 lineto
66031.1 38825.1 lineto
65918.6 38768.9 lineto
65637.4 38768.9 lineto
65524.9 38825.1 lineto
65468.7 38881.3 lineto
stroke
newpath
67549.6 38768.9 moveto
67549.6 39950 lineto
stroke
newpath
68055.8 38768.9 moveto
68055.8 39387.5 lineto
67999.6 39500 lineto
67887.1 39556.3 lineto
67718.4 39556.3 lineto
67605.9 39500 lineto
67549.6 39443.8 lineto
stroke
newpath
68787 38768.9 moveto
68674.5 38825.1 lineto
68618.3 38881.3 lineto
68562 38993.8 lineto
68562 39331.3 lineto
68618.3 39443.8 lineto
68674.5 39500 lineto
68787 39556.3 lineto
68955.7 39556.3 lineto
69068.2 39500 lineto
69124.4 39443.8 lineto
69180.7 39331.3 lineto
69180.7 38993.8 lineto
69124.4 38881.3 lineto
69068.2 38825.1 lineto
68955.7 38768.9 lineto
68787 38768.9 lineto
stroke
newpath
69855.6 38768.9 moveto
69743.1 38825.1 lineto
69686.9 38937.6 lineto
69686.9 39950 lineto
stroke
newpath
70755.5 38825.1 moveto
70643 38768.9 lineto
70418 38768.9 lineto
70305.6 38825.1 lineto
70249.3 38937.6 lineto
70249.3 39387.5 lineto
70305.6 39500 lineto
70418 39556.3 lineto
70643 39556.3 lineto
70755.5 39500 lineto
70811.7 39387.5 lineto
70811.7 39275 lineto
70249.3 39162.6 lineto
stroke
newpath
71261.7 38825.1 moveto
71374.2 38768.9 lineto
71599.1 38768.9 lineto
71711.6 38825.1 lineto
71767.9 38937.6 lineto
71767.9 38993.8 lineto
71711.6 39106.3 lineto
71599.1 39162.6 lineto
71430.4 39162.6 lineto
71317.9 39218.8 lineto
71261.7 39331.3 lineto
71261.7 39387.5 lineto
71317.9 39500 lineto
71430.4 39556.3 lineto
71599.1 39556.3 lineto
71711.6 39500 lineto
stroke
newpath
72161.6 38318.9 moveto
72217.8 38375.2 lineto
72330.3 38543.9 lineto
72386.5 38656.4 lineto
72442.8 38825.1 lineto
72499 39106.3 lineto
72499 39331.3 lineto
72442.8 39612.5 lineto
72386.5 39781.2 lineto
72330.3 39893.7 lineto
72217.8 40062.4 lineto
72161.6 40118.7 lineto
stroke
46152 37744.1 472.441 cir0
0 0 0 setrgbcolor
0 0 0 setrgbcolor
newpath
47977.1 38390.9 moveto
48089.6 38390.9 lineto
48202.1 38334.7 lineto
48258.3 38278.4 lineto
48314.5 38165.9 lineto
48370.8 37941 lineto
48370.8 37659.7 lineto
48314.5 37434.8 lineto
48258.3 37322.3 lineto
48202.1 37266 lineto
48089.6 37209.8 lineto
47977.1 37209.8 lineto
47864.6 37266 lineto
47808.4 37322.3 lineto
47752.1 37434.8 lineto
47695.9 37659.7 lineto
47695.9 37941 lineto
47752.1 38165.9 lineto
47808.4 38278.4 lineto
47864.6 38334.7 lineto
47977.1 38390.9 lineto
stroke
newpath
48877 37322.3 moveto
48933.2 37266 lineto
48877 37209.8 lineto
48820.7 37266 lineto
48877 37322.3 lineto
48877 37209.8 lineto
stroke
newpath
49608.1 37884.7 moveto
49495.7 37941 lineto
49439.4 37997.2 lineto
49383.2 38109.7 lineto
49383.2 38165.9 lineto
49439.4 38278.4 lineto
49495.7 38334.7 lineto
49608.1 38390.9 lineto
49833.1 38390.9 lineto
49945.6 38334.7 lineto
50001.8 38278.4 lineto
50058.1 38165.9 lineto
50058.1 38109.7 lineto
50001.8 37997.2 lineto
49945.6 37941 lineto
49833.1 37884.7 lineto
49608.1 37884.7 lineto
49495.7 37828.5 lineto
49439.4 37772.2 lineto
49383.2 37659.7 lineto
49383.2 37434.8 lineto
49439.4 37322.3 lineto
49495.7 37266 lineto
49608.1 37209.8 lineto
49833.1 37209.8 lineto
49945.6 37266 lineto
50001.8 37322.3 lineto
50058.1 37434.8 lineto
50058.1 37659.7 lineto
50001.8 37772.2 lineto
49945.6 37828.5 lineto
49833.1 37884.7 lineto
stroke
newpath
50789.2 38390.9 moveto
50901.7 38390.9 lineto
51014.2 38334.7 lineto
51070.5 38278.4 lineto
51126.7 38165.9 lineto
51182.9 37941 lineto
51182.9 37659.7 lineto
51126.7 37434.8 lineto
51070.5 37322.3 lineto
51014.2 37266 lineto
50901.7 37209.8 lineto
50789.2 37209.8 lineto
50676.8 37266 lineto
50620.5 37322.3 lineto
50564.3 37434.8 lineto
50508 37659.7 lineto
50508 37941 lineto
50564.3 38165.9 lineto
50620.5 38278.4 lineto
50676.8 38334.7 lineto
50789.2 38390.9 lineto
stroke
newpath
51689.1 37209.8 moveto
51689.1 37997.2 lineto
stroke
newpath
51689.1 37884.7 moveto
51745.4 37941 lineto
51857.9 37997.2 lineto
52026.6 37997.2 lineto
52139.1 37941 lineto
52195.3 37828.5 lineto
52195.3 37209.8 lineto
stroke
newpath
52195.3 37828.5 moveto
52251.6 37941 lineto
52364 37997.2 lineto
52532.8 37997.2 lineto
52645.3 37941 lineto
52701.5 37828.5 lineto
52701.5 37209.8 lineto
stroke
newpath
53263.9 37209.8 moveto
53263.9 37997.2 lineto
stroke
newpath
53263.9 37884.7 moveto
53320.2 37941 lineto
53432.7 37997.2 lineto
53601.4 37997.2 lineto
53713.9 37941 lineto
53770.1 37828.5 lineto
53770.1 37209.8 lineto
stroke
newpath
53770.1 37828.5 moveto
53826.4 37941 lineto
53938.8 37997.2 lineto
54107.6 37997.2 lineto
54220.1 37941 lineto
54276.3 37828.5 lineto
54276.3 37209.8 lineto
stroke
newpath
56582.3 38447.1 moveto
55569.9 36928.6 lineto
stroke
newpath
58100.8 38390.9 moveto
58213.3 38390.9 lineto
58325.8 38334.7 lineto
58382 38278.4 lineto
58438.3 38165.9 lineto
58494.5 37941 lineto
58494.5 37659.7 lineto
58438.3 37434.8 lineto
58382 37322.3 lineto
58325.8 37266 lineto
58213.3 37209.8 lineto
58100.8 37209.8 lineto
57988.3 37266 lineto
57932.1 37322.3 lineto
57875.9 37434.8 lineto
57819.6 37659.7 lineto
57819.6 37941 lineto
57875.9 38165.9 lineto
57932.1 38278.4 lineto
57988.3 38334.7 lineto
58100.8 38390.9 lineto
stroke
newpath
59000.7 37322.3 moveto
59057 37266 lineto
59000.7 37209.8 lineto
58944.5 37266 lineto
59000.7 37322.3 lineto
59000.7 37209.8 lineto
stroke
newpath
59788.1 38390.9 moveto
59900.6 38390.9 lineto
60013.1 38334.7 lineto
60069.3 38278.4 lineto
60125.6 38165.9 lineto
60181.8 37941 lineto
60181.8 37659.7 lineto
60125.6 37434.8 lineto
60069.3 37322.3 lineto
60013.1 37266 lineto
59900.6 37209.8 lineto
59788.1 37209.8 lineto
59675.6 37266 lineto
59619.4 37322.3 lineto
59563.1 37434.8 lineto
59506.9 37659.7 lineto
59506.9 37941 lineto
59563.1 38165.9 lineto
59619.4 38278.4 lineto
59675.6 38334.7 lineto
59788.1 38390.9 lineto
stroke
newpath
60575.5 38390.9 moveto
61306.7 38390.9 lineto
60913 37941 lineto
61081.7 37941 lineto
61194.2 37884.7 lineto
61250.4 37828.5 lineto
61306.7 37716 lineto
61306.7 37434.8 lineto
61250.4 37322.3 lineto
61194.2 37266 lineto
61081.7 37209.8 lineto
60744.2 37209.8 lineto
60631.8 37266 lineto
60575.5 37322.3 lineto
stroke
newpath
62431.5 37209.8 moveto
61756.6 37209.8 lineto
stroke
newpath
62094.1 37209.8 moveto
62094.1 38390.9 lineto
61981.6 38222.2 lineto
61869.1 38109.7 lineto
61756.6 38053.4 lineto
stroke
newpath
62881.5 38390.9 moveto
62881.5 38165.9 lineto
stroke
newpath
63331.4 38390.9 moveto
63331.4 38165.9 lineto
stroke
newpath
65075 36759.9 moveto
65018.7 36816.1 lineto
64906.2 36984.8 lineto
64850 37097.3 lineto
64793.7 37266 lineto
64737.5 37547.3 lineto
64737.5 37772.2 lineto
64793.7 38053.4 lineto
64850 38222.2 lineto
64906.2 38334.7 lineto
65018.7 38503.4 lineto
65075 38559.6 lineto
stroke
newpath
65693.6 37884.7 moveto
65581.1 37941 lineto
65524.9 37997.2 lineto
65468.7 38109.7 lineto
65468.7 38165.9 lineto
65524.9 38278.4 lineto
65581.1 38334.7 lineto
65693.6 38390.9 lineto
65918.6 38390.9 lineto
66031.1 38334.7 lineto
66087.3 38278.4 lineto
66143.6 38165.9 lineto
66143.6 38109.7 lineto
66087.3 37997.2 lineto
66031.1 37941 lineto
65918.6 37884.7 lineto
65693.6 37884.7 lineto
65581.1 37828.5 lineto
65524.9 37772.2 lineto
65468.7 37659.7 lineto
65468.7 37434.8 lineto
65524.9 37322.3 lineto
65581.1 37266 lineto
65693.6 37209.8 lineto
65918.6 37209.8 lineto
66031.1 37266 lineto
66087.3 37322.3 lineto
66143.6 37434.8 lineto
66143.6 37659.7 lineto
66087.3 37772.2 lineto
66031.1 37828.5 lineto
65918.6 37884.7 lineto
stroke
newpath
67549.6 37209.8 moveto
67549.6 38390.9 lineto
stroke
newpath
68055.8 37209.8 moveto
68055.8 37828.5 lineto
67999.6 37941 lineto
67887.1 37997.2 lineto
67718.4 37997.2 lineto
67605.9 37941 lineto
67549.6 37884.7 lineto
stroke
newpath
68787 37209.8 moveto
68674.5 37266 lineto
68618.3 37322.3 lineto
68562 37434.8 lineto
68562 37772.2 lineto
68618.3 37884.7 lineto
68674.5 37941 lineto
68787 37997.2 lineto
68955.7 37997.2 lineto
69068.2 37941 lineto
69124.4 37884.7 lineto
69180.7 37772.2 lineto
69180.7 37434.8 lineto
69124.4 37322.3 lineto
69068.2 37266 lineto
68955.7 37209.8 lineto
68787 37209.8 lineto
stroke
newpath
69855.6 37209.8 moveto
69743.1 37266 lineto
69686.9 37378.5 lineto
69686.9 38390.9 lineto
stroke
newpath
70755.5 37266 moveto
70643 37209.8 lineto
70418 37209.8 lineto
70305.6 37266 lineto
70249.3 37378.5 lineto
70249.3 37828.5 lineto
70305.6 37941 lineto
70418 37997.2 lineto
70643 37997.2 lineto
70755.5 37941 lineto
70811.7 37828.5 lineto
70811.7 37716 lineto
70249.3 37603.5 lineto
stroke
newpath
71261.7 37266 moveto
71374.2 37209.8 lineto
71599.1 37209.8 lineto
71711.6 37266 lineto
71767.9 37378.5 lineto
71767.9 37434.8 lineto
71711.6 37547.3 lineto
71599.1 37603.5 lineto
71430.4 37603.5 lineto
71317.9 37659.7 lineto
71261.7 37772.2 lineto
71261.7 37828.5 lineto
71317.9 37941 lineto
71430.4 37997.2 lineto
71599.1 37997.2 lineto
71711.6 37941 lineto
stroke
newpath
72161.6 36759.9 moveto
72217.8 36816.1 lineto
72330.3 36984.8 lineto
72386.5 37097.3 lineto
72442.8 37266 lineto
72499 37547.3 lineto
72499 37772.2 lineto
72442.8 38053.4 lineto
72386.5 38222.2 lineto
72330.3 38334.7 lineto
72217.8 38503.4 lineto
72161.6 38559.6 lineto
stroke
showpage
grestore
%%EOF
